X ; Y ; Pressure ; TimeStamp 
142.9177398682;358.5763244629;0.0002594034;1502271841963
142.9177398682;358.5763244629;0.0002594034;1502271841978
142.9177398682;358.5763244629;0.0002594034;1502271841995
142.9177398682;358.5763244629;0.0002594034;1502271842012
142.9177398682;358.5763244629;0.0002594034;1502271842029
142.9177398682;358.5763244629;0.0002594034;1502271842046
142.9177398682;358.5763244629;0.0002594034;1502271842062
142.9177398682;358.5763244629;0.0004577707;1502271842076
142.9177398682;358.5763244629;0.0009918364;1502271842093
143.5498504639;367.8921508789;0.0024719615;1502271842110
144.9167022705;395.2306823730;0.0056458381;1502271842127
145.9161834717;434.6560058594;0.0106813153;1502271842144
146.1883392334;483.9251098633;0.0159609374;1502271842160
144.3798522949;533.3970947266;0.0216678120;1502271842177
140.3119964600;579.6392211914;0.0289616231;1502271842194
134.4305114746;615.7964477539;0.0342565030;1502271842211
129.2022705078;642.7875366211;0.0391393900;1502271842228
120.4449005127;664.1593627930;0.0448615253;1502271842244
116.0565032959;667.2904663086;0.0493476763;1502271842261
109.5017852783;662.8612060547;0.0525673293;1502271842278
100.2830657959;645.2544555664;0.0557717234;1502271842295
93.8861160278;616.0330810547;0.0606698692;1502271842312
89.9515838623;585.4724731445;0.0622110330;1502271842329
91.9257965088;548.7518920898;0.0650949851;1502271842345
93.9485626221;511.3234252930;0.0685435236;1502271842362
102.1855850220;468.4387817383;0.0705271959;1502271842379
112.3303833008;429.1621704102;0.0734264106;1502271842396
122.3595275879;394.8184814453;0.0774090216;1502271842413
132.8008880615;364.2300720215;0.0825818256;1502271842429
139.5892333984;344.5800170898;0.0893568322;1502271842446
153.4091033936;329.4058837891;0.0942244604;1502271842463
166.3903198242;323.5438537598;0.0987563878;1502271842480
175.8615264893;321.2187194824;0.1033188403;1502271842497
183.0046691895;325.8713073730;0.1082017273;1502271842513
190.7714080811;340.5466613770;0.1123826951;1502271842530
191.4188995361;367.0930480957;0.1155718341;1502271842547
183.4589538574;404.3558654785;0.1181811243;1502271842564
166.6880035400;450.5617065430;0.1208209321;1502271842580
146.2586364746;495.8953857422;0.1237048879;1502271842597
123.5308380127;534.8921508789;0.1322499365;1502271842614
105.9163742065;559.2938232422;0.1429312527;1502271842631
93.5829696655;577.0786743164;0.1506218016;1502271842648
86.5321655273;587.1945190430;0.1534904987;1502271842665
82.4787826538;591.0962524414;0.1547264755;1502271842681
81.9495010376;591.3607788086;0.1551232189;1502271842698
81.9495010376;590.5551147461;0.1548180431;1502271842715
85.4519958496;586.8606567383;0.1538262069;1502271842732
94.2860794067;582.5003662109;0.1510490626;1502271842749
105.4282531738;579.4735717773;0.1447928548;1502271842765
116.4398345947;582.2053222656;0.1381704360;1502271842782
128.3333587646;588.9683227539;0.1340047270;1502271842799
139.4750976562;599.9084472656;0.1311207712;1502271842816
150.9389648438;611.3676757812;0.1282978505;1502271842833
158.9716796875;618.3825073242;0.1268940270;1502271842850
168.0843048096;625.4639892578;0.1255512387;1502271842866
173.1264953613;627.3274536133;0.1242694706;1502271842883
177.1807556152;623.0505981445;0.1230640113;1502271842900
181.2366790771;617.8279418945;0.1221179515;1502271842917
187.5611572266;607.0129394531;0.1211413741;1502271842933
193.3745117188;592.9102783203;0.1200579852;1502271842951
197.5117950439;578.8824462891;0.1190661490;1502271842967
201.5375823975;567.4318237305;0.1181811243;1502271842984
203.2339477539;559.0002441406;0.1176623181;1502271843001
205.2836303711;554.5980834961;0.1173876524;1502271843017
205.8849487305;551.9688110352;0.1174181700;1502271843034
205.8849487305;549.9564208984;0.1178454235;1502271843051
205.8849487305;547.9229125977;0.1189288199;1502271843068
205.8849487305;545.8914184570;0.1206683442;1502271843085
205.8849487305;545.4033203125;0.1234760061;1502271843101
205.8849487305;545.4033203125;0.1273823082;1502271843118
205.8849487305;545.4033203125;0.1313496530;1502271843135
205.8849487305;545.4033203125;0.1355611533;1502271843152
205.8849487305;545.4033203125;0.1397116035;1502271843169
205.8849487305;545.4033203125;0.1433279961;1502271843185
205.8849487305;545.4033203125;0.1467460096;1502271843202
205.8849487305;545.4033203125;0.1499809325;1502271843219
205.8849487305;545.4033203125;0.1530022174;1502271843236
205.8849487305;545.4033203125;0.1556420177;1502271843253
205.8849487305;545.4033203125;0.1579613984;1502271843269
205.8849487305;545.4033203125;0.1600213647;1502271843286
205.8849487305;545.4033203125;0.1618677080;1502271843303
205.8849487305;545.4033203125;0.1634851545;1502271843320
205.8849487305;545.4033203125;0.1652094275;1502271843337
205.8849487305;545.4033203125;0.1670405120;1502271843354
205.8849487305;545.4033203125;0.1703669727;1502271843371
205.8849487305;545.4033203125;0.1726863533;1502271843387
205.8849487305;545.4033203125;0.1753414273;1502271843404
205.8849487305;545.4033203125;0.1778286397;1502271843421
205.8849487305;545.4033203125;0.1806973368;1502271843438
204.8854675293;545.4033203125;0.1832150817;1502271843454
204.8854675293;545.4033203125;0.1855344474;1502271843471
204.8854675293;545.4033203125;0.1875944138;1502271843488
204.8854675293;545.4033203125;0.1896696389;1502271843505
204.8854675293;549.0263061523;0.1914702058;1502271843522
204.8854675293;553.1311645508;0.1933318079;1502271843538
202.5054473877;559.9149169922;0.1954070330;1502271843555
200.4778594971;568.4315795898;0.1979095191;1502271843572
198.8885955811;578.7398071289;0.2005493194;1502271843589
198.3906402588;589.8496704102;0.2028687000;1502271843605
198.8885955811;602.0020141602;0.2054932415;1502271843622
200.4563598633;614.3195800781;0.2078431398;1502271843639
204.1012725830;627.3659667969;0.2102235407;1502271843656
208.7808074951;631.9556884766;0.2121309191;1502271843673
217.8979949951;630.9843139648;0.2132448256;1502271843690
230.0621795654;622.1424560547;0.2136110514;1502271843706
242.9512939453;600.4545288086;0.2134737223;1502271843723
254.3933410645;572.0445556641;0.2127870619;1502271843740
259.6430664062;543.7576904297;0.2112458944;1502271843757
260.8563232422;524.7854003906;0.2092164457;1502271843774
260.0018005371;516.7199707031;0.2074158788;1502271843790
256.0376281738;516.3408813477;0.2060730904;1502271843807
248.1664428711;528.8723144531;0.2053101361;1502271843824
240.9751129150;546.1135253906;0.2050202191;1502271843841
239.8672485352;561.3614501953;0.2049439251;1502271843858
243.8936462402;574.4476928711;0.2051880658;1502271843874
250.0321350098;578.4295043945;0.2053253949;1502271843891
260.2315673828;575.1882934570;0.2052948773;1502271843908
274.1476745605;568.2827758789;0.2048065960;1502271843924
287.2760620117;559.1304931641;0.2039368302;1502271843941
295.4603576660;564.0081176758;0.2030212879;1502271843958
301.2163696289;576.1370849609;0.2021820396;1502271843975
306.3919982910;588.4822998047;0.2015411556;1502271843992
310.2666015625;597.2273559570;0.2011291683;1502271844008
314.3498840332;599.3533935547;0.2009918392;1502271844025
319.7471923828;591.8244628906;0.2009765804;1502271844042
328.0666809082;571.9539794922;0.2010681331;1502271844059
338.2936401367;539.2371826172;0.2010681331;1502271844075
344.0102233887;501.4625244141;0.2011291683;1502271844092
351.5447692871;466.2321166992;0.2011749446;1502271844109
356.2548522949;431.6817626953;0.2015716732;1502271844126
356.3683776855;410.5844116211;0.2025940269;1502271844143
352.7655334473;389.8114013672;0.2044251114;1502271844160
348.6985168457;374.2256774902;0.2080262452;1502271844176
345.2413330078;365.8564758301;0.2125734389;1502271844193
343.2068176270;361.9665832520;0.2175173610;1502271844210
341.1706542969;361.5735473633;0.2214694470;1502271844227
335.7977905273;372.9482727051;0.2248722017;1502271844243
328.6902160645;397.1943664551;0.2276646048;1502271844261
323.1107177734;439.6171875000;0.2297245711;1502271844277
320.0748901367;489.9671630859;0.2314641029;1502271844294
322.2202148438;532.3878173828;0.2333104461;1502271844311
328.3320312500;558.7604370117;0.2353704125;1502271844327
335.9208984375;569.0228881836;0.2371252030;1502271844344
348.3387145996;569.5911865234;0.2382085919;1502271844361
365.0015869141;556.8331298828;0.2386510968;1502271844378
377.1803588867;539.5164794922;0.2385900617;1502271844395
385.6110839844;528.6591796875;0.2381780744;1502271844411
388.7943725586;526.4208984375;0.2374151200;1502271844428
390.8243408203;527.4556884766;0.2371709794;1502271844445
391.7881164551;534.7904052734;0.2372472733;1502271844462
392.8739013672;541.7520751953;0.2376287431;1502271844479
395.9301452637;547.6895751953;0.2381322980;1502271844495
396.9521484375;550.5652465820;0.2386205792;1502271844512
398.9725646973;549.2116699219;0.2390630990;1502271844529
406.4588928223;539.7301635742;0.2393682748;1502271844546
413.4913330078;538.1718139648;0.2395361215;1502271844563
420.3347473145;536.4116821289;0.2395513803;1502271844580
424.3928222656;538.7203369141;0.2394750863;1502271844596
430.8590087891;543.1329345703;0.2393224984;1502271844613
436.9566650391;543.4052124023;0.2390936166;1502271844630
444.4729003906;541.9784545898;0.2388036996;1502271844647
457.9453430176;532.6793823242;0.2385748029;1502271844663
472.6878967285;518.5008544922;0.2383764386;1502271844680
484.8394775391;500.7699584961;0.2382238507;1502271844697
492.9797668457;485.5311279297;0.2382696271;1502271844714
500.5046386719;474.1051635742;0.2384527326;1502271844730
505.3418579102;466.2508544922;0.2387884408;1502271844747
507.3769531250;464.4782714844;0.2392309457;1502271844764
508.7272338867;465.1595458984;0.2398413122;1502271844781
509.7266845703;469.5861206055;0.2408178896;1502271844798
509.7266845703;481.7276611328;0.2422674894;1502271844814
509.7266845703;493.3759765625;0.2445868552;1502271844831
511.5253295898;500.0444335938;0.2480811775;1502271844848
513.3356933594;499.6402587891;0.2525673211;1502271844865
520.5335693359;487.8316040039;0.2562752664;1502271844882
530.7493286133;470.0194091797;0.2595101893;1502271844899
539.0582275391;455.6294555664;0.2621499896;1502271844915
543.5502319336;449.6508178711;0.2643625438;1502271844932
544.7084960938;450.4020385742;0.2668040097;1502271844949
545.7079467773;461.0906372070;0.2696421742;1502271844966
543.7187500000;477.3883056641;0.2735332251;1502271844982
542.7095336914;490.5025024414;0.2819409370;1502271844999
545.7835693359;505.6671142578;0.2886549234;1502271845016
549.9362182617;511.6651000977;0.2938887477;1502271845033
556.2683105469;508.8713378906;0.2981307805;1502271845050
566.9126586914;493.7490844727;0.3020370901;1502271845066
581.6284790039;470.1485595703;0.3057145178;1502271845083
593.5693969727;455.2860107422;0.3091630340;1502271845100
599.6751098633;448.4977416992;0.3121538162;1502271845117
603.3978881836;447.4940185547;0.3153429329;1502271845134
608.7279663086;451.5430908203;0.3194934130;1502271845151
614.9780273438;461.6578979492;0.3243610263;1502271845167
623.0443115234;479.1356811523;0.3310444653;1502271845184
629.1558227539;489.9517822266;0.3383382857;1502271845201
638.2667846680;484.3409423828;0.3492790163;1502271845218
657.7148437500;459.1096801758;0.3604333699;1502271845234
675.2031860352;429.9786376953;0.3692378104;1502271845251
684.5738525391;410.0061950684;0.3723506629;1502271845268
685.6350708008;407.5310058594;0.3727779090;1502271845283
685.6350708008;407.5310058594;0.3727779090;1502271845284
808.5710449219;276.6521606445;0.0002594034;1502271847254
808.5710449219;276.6521606445;0.0002594034;1502271847256
808.5710449219;276.6521606445;0.0002594034;1502271847269
808.5710449219;276.6521606445;0.0006103609;1502271847284
805.9602050781;283.1766662598;0.0025482567;1502271847301
805.5725708008;309.9659729004;0.0107118338;1502271847317
806.9459228516;364.2949523926;0.0240634773;1502271847334
806.9824829102;421.0148315430;0.0373693444;1502271847351
806.2243652344;463.5219116211;0.0516670495;1502271847370
806.5720825195;489.7380371094;0.0642862618;1502271847386
806.5720825195;503.0913696289;0.0769054741;1502271847403
805.8015136719;507.4384765625;0.0879224837;1502271847420
802.1965942383;505.8547363281;0.0988937244;1502271847437
791.3943481445;483.9034423828;0.1087357923;1502271847454
783.8691406250;439.7811889648;0.1174792126;1502271847470
786.1459960938;392.9120483398;0.1275196522;1502271847487
798.0382080078;346.2026977539;0.1417105347;1502271847504
819.6198120117;304.0314025879;0.1598535180;1502271847521
847.5394287109;276.1276245117;0.1787441820;1502271847537
877.5637817383;263.9627990723;0.1972686350;1502271847554
901.7551879883;267.7238769531;0.2187228203;1502271847571
923.3308105469;281.2852783203;0.2260929346;1502271847588
931.7238769531;304.7109985352;0.2306706309;1502271847605
926.8708496094;332.1551818848;0.2335851043;1502271847621
908.7414550781;364.5331115723;0.2350194603;1502271847638
889.4994506836;384.5816650391;0.2361181080;1502271847655
864.7476806641;395.8119201660;0.2370641679;1502271847672
853.2156982422;398.8054809570;0.2379644513;1502271847689
845.4843139648;398.5393066406;0.2387731671;1502271847706
840.8064575195;394.7950439453;0.2394445688;1502271847722
839.5548706055;392.1510620117;0.2399481237;1502271847739
839.5548706055;390.1223754883;0.2404058874;1502271847756
844.8779296875;400.0733642578;0.2408789247;1502271847773
849.5167846680;417.8730468750;0.2415197939;1502271847789
846.5372924805;454.0923461914;0.2425879240;1502271847806
839.9114990234;489.6708374023;0.2453650683;1502271847823
834.3884887695;518.0281982422;0.2540321946;1502271847840
831.3258056641;539.1925048828;0.2667277157;1502271847857
828.2645874023;558.8720092773;0.2793316543;1502271847873
825.8710937500;575.2120361328;0.2874494493;1502271847891
822.8406982422;586.2571411133;0.2948958576;1502271847907
820.8214721680;592.5892944336;0.2988937199;1502271847924
820.5648193359;596.1430053711;0.3013961911;1502271847941
820.5648193359;596.3561401367;0.3025101125;1502271847957
823.1988525391;590.4553833008;0.3028152883;1502271847974
832.5843505859;574.1627807617;0.3025558889;1502271847991
847.4076538086;551.3575439453;0.3012436032;1502271848008
860.4285278320;530.9041137695;0.2978408337;1502271848025
870.9822387695;512.5463867188;0.2924696803;1502271848041
879.3049926758;499.7321166992;0.2863202989;1502271848059
885.3864135742;490.6467895508;0.2801556289;1502271848075
889.4478149414;485.5399169922;0.2745555937;1502271848092
892.5145874023;482.4743041992;0.2694285512;1502271848109
894.5365600586;480.4531250000;0.2626993060;1502271848125
896.5709838867;478.4195556641;0.2589913905;1502271848142
899.6585083008;471.0675659180;0.2557717264;1502271848159
901.7051391602;464.9301757812;0.2532539964;1502271848176
904.0028686523;461.7584838867;0.2512703240;1502271848193
906.7768554688;456.9712524414;0.2495918274;1502271848210
910.1249389648;452.8822021484;0.2480659187;1502271848226
914.1728515625;448.8359375000;0.2467383891;1502271848243
915.8897705078;447.1197509766;0.2457007766;1502271848260
919.9316406250;442.0803833008;0.2449683398;1502271848277
921.9453735352;440.0675048828;0.2445105612;1502271848293
923.9494628906;437.0650634766;0.2443884909;1502271848310
925.5101318359;435.5050659180;0.2446021140;1502271848327
925.5101318359;435.5050659180;0.2454413623;1502271848344
926.5095825195;442.2324829102;0.2478522956;1502271848361
926.5095825195;453.6903076172;0.2548561692;1502271848377
924.8822021484;468.2441406250;0.2658426762;1502271848394
923.5111694336;476.4277343750;0.2748912871;1502271848411
923.5111694336;477.4662475586;0.2810559273;1502271848428
926.6537475586;470.4695434570;0.2850843072;1502271848445
935.2122802734;447.8548583984;0.2875562608;1502271848461
946.2478027344;420.6476440430;0.2888990641;1502271848478
956.6961669922;401.9322204590;0.2896009684;1502271848495
962.2106933594;393.8240051270;0.2899824381;1502271848512
967.1491088867;398.8602905273;0.2901960909;1502271848529
971.1398925781;413.9656982422;0.2903791964;1502271848545
974.4136962891;451.2127075195;0.2906996310;1502271848562
977.4265747070;482.0382080078;0.2916914523;1502271848579
983.3153686523;503.0034790039;0.2949568927;1502271848596
990.2747192383;509.3358764648;0.3029220998;1502271848613
1000.2484130859;501.6666259766;0.3117113113;1502271848630
1021.6414794922;470.2256469727;0.3210955858;1502271848646
1044.4512939453;419.0582885742;0.3253528774;1502271848663
1057.4920654297;377.0567016602;0.3310292065;1502271848680
1065.0092773438;341.3517456055;0.3371481001;1502271848697
1067.6619873047;321.5767211914;0.3427328765;1502271848714
1066.1379394531;308.8280944824;0.3466697037;1502271848730
1065.1232910156;302.6858215332;0.3494621217;1502271848747
1064.1024169922;301.6290588379;0.3515220881;1502271848764
1058.2928466797;306.7724609375;0.3528648913;1502271848781
1050.8267822266;331.6688842773;0.3534905016;1502271848797
1045.5611572266;358.6675720215;0.3535057604;1502271848814
1043.4487304688;393.3180236816;0.3531853259;1502271848831
1046.4721679688;423.6663818359;0.3526054919;1502271848848
1050.5310058594;440.7583007812;0.3520256281;1502271848865
1053.5814208984;449.1995239258;0.3514763117;1502271848881
1057.6534423828;451.4902954102;0.3506675959;1502271848898
1061.7111816406;449.8557739258;0.3494010866;1502271848915
1065.1072998047;447.8237915039;0.3476157784;1502271848932
1069.5482177734;448.9014282227;0.3456626236;1502271848949
1076.4310302734;460.2310180664;0.3441214561;1502271848965
1081.9619140625;475.8344726562;0.3430991173;1502271848982
1084.2437744141;486.7229003906;0.3425802886;1502271848999
1088.0999755859;493.1262817383;0.3424429595;1502271849016
1093.5181884766;492.9041137695;0.3426108062;1502271849033
1104.2618408203;484.6148071289;0.3431143761;1502271849050
1115.7310791016;473.1502075195;0.3439536095;1502271849066
1123.0898437500;462.9029541016;0.3448844254;1502271849083
1126.3741455078;457.5475463867;0.3457389176;1502271849100
1126.4055175781;454.4646606445;0.3466239274;1502271849117
1125.3526611328;453.4884643555;0.3470359445;1502271849133
1124.4064941406;453.4884643555;0.3474784493;1502271849150
1122.2716064453;455.6224975586;0.3480735421;1502271849167
1121.4080810547;459.8218383789;0.3487754762;1502271849184
1121.4080810547;463.8753051758;0.3494621217;1502271849201
1121.4080810547;469.1684570312;0.3501029909;1502271849217
1123.6684570312;472.9933471680;0.3506523371;1502271849234
1126.7070312500;473.4699096680;0.3510185480;1502271849251
1137.3450927734;468.1779174805;0.3510795832;1502271849268
1151.0268554688;458.2261962891;0.3508812189;1502271849285
1164.7503662109;440.7411499023;0.3503013551;1502271849302
1173.6717529297;432.2172851562;0.3490348756;1502271849318
1178.8387451172;428.0513916016;0.3468680978;1502271849335
1181.3614501953;428.0043334961;0.3440604210;1502271849352
1185.4204101562;435.6421508789;0.3412527740;1502271849369
1189.4808349609;449.3709716797;0.3391470313;1502271849385
1193.5532226562;464.6174926758;0.3377431929;1502271849402
1199.1936035156;477.5097045898;0.3368886709;1502271849419
1206.0026855469;483.1206665039;0.3363393545;1502271849436
1216.4414062500;478.7431640625;0.3359578848;1502271849453
1230.3818359375;460.5767822266;0.3356374502;1502271849470
1242.0524902344;442.5670776367;0.3352102041;1502271849486
1247.9810791016;432.2301025391;0.3344624937;1502271849504
1251.2133789062;428.6385498047;0.3332875669;1502271849521
1254.0505371094;432.7864990234;0.3319600224;1502271849537
1257.9700927734;443.3972778320;0.3307087719;1502271849554
1262.0621337891;454.8054809570;0.3297169507;1502271849571
1268.8911132812;466.8157348633;0.3289692402;1502271849588
1278.2938232422;467.4819946289;0.3284199238;1502271849605
1293.6580810547;449.0255737305;0.3277790546;1502271849621
1306.8585205078;422.0950927734;0.3273670673;1502271849638
1316.7780761719;392.1296386719;0.3270771205;1502271849655
1321.6131591797;383.0895385742;0.3267872036;1502271849672
1323.4899902344;385.9252319336;0.3263446987;1502271849689
1324.3023681641;396.9712829590;0.3257496059;1502271849706
1326.5810546875;425.8710327148;0.3250476718;1502271849722
1329.9451904297;439.4384765625;0.3246662021;1502271849740
1341.3712158203;446.5338134766;0.3249408603;1502271849756
1361.6838378906;429.9096679688;0.3265583217;1502271849773
1393.1300048828;390.9931945801;0.3343861997;1502271849790
1413.9423828125;369.3274230957;0.3389181495;1502271849806
1417.2540283203;366.5689086914;0.3393301368;1502271849823
1417.2540283203;366.5689086914;0.3393301368;1502271849823
