\relax 
\providecommand\hyper@newdestlabel[2]{}
\providecommand\HyperFirstAtBeginDocument{\AtBeginDocument}
\HyperFirstAtBeginDocument{\ifx\hyper@anchor\@undefined
\global\let\oldcontentsline\contentsline
\gdef\contentsline#1#2#3#4{\oldcontentsline{#1}{#2}{#3}}
\global\let\oldnewlabel\newlabel
\gdef\newlabel#1#2{\newlabelxx{#1}#2}
\gdef\newlabelxx#1#2#3#4#5#6{\oldnewlabel{#1}{{#2}{#3}}}
\AtEndDocument{\ifx\hyper@anchor\@undefined
\let\contentsline\oldcontentsline
\let\newlabel\oldnewlabel
\fi}
\fi}
\global\let\hyper@last\relax 
\gdef\HyperFirstAtBeginDocument#1{#1}
\providecommand\HyField@AuxAddToFields[1]{}
\providecommand\HyField@AuxAddToCoFields[2]{}
\@writefile{toc}{\contentsline {section}{\numberline {1}section}{2}{section.1}}
\@writefile{toc}{\contentsline {subsection}{\numberline {1.1}subsection}{2}{subsection.1.1}}
\@writefile{toc}{\contentsline {section}{\numberline {2}section}{2}{section.2}}
\bibcite{z1}{1}
\@writefile{lof}{\contentsline {figure}{\numberline {1}{\ignorespaces ...}}{3}{figure.1}}
\newlabel{...}{{1}{3}{..}{figure.1}{}}
