\relax 
\providecommand\hyper@newdestlabel[2]{}
\providecommand\HyperFirstAtBeginDocument{\AtBeginDocument}
\HyperFirstAtBeginDocument{\ifx\hyper@anchor\@undefined
\global\let\oldcontentsline\contentsline
\gdef\contentsline#1#2#3#4{\oldcontentsline{#1}{#2}{#3}}
\global\let\oldnewlabel\newlabel
\gdef\newlabel#1#2{\newlabelxx{#1}#2}
\gdef\newlabelxx#1#2#3#4#5#6{\oldnewlabel{#1}{{#2}{#3}}}
\AtEndDocument{\ifx\hyper@anchor\@undefined
\let\contentsline\oldcontentsline
\let\newlabel\oldnewlabel
\fi}
\fi}
\global\let\hyper@last\relax 
\gdef\HyperFirstAtBeginDocument#1{#1}
\providecommand\HyField@AuxAddToFields[1]{}
\providecommand\HyField@AuxAddToCoFields[2]{}
\@writefile{toc}{\contentsline {chapter}{\numberline {1}Podsumowanie etapu I}{3}{chapter.1}}
\@writefile{lof}{\addvspace {10\p@ }}
\@writefile{lot}{\addvspace {10\p@ }}
\@writefile{toc}{\contentsline {section}{\numberline {1.1}Wst\IeC {\k e}p}{3}{section.1.1}}
\@writefile{toc}{\contentsline {section}{\numberline {1.2}Wyniki}{4}{section.1.2}}
\@writefile{lot}{\contentsline {table}{\numberline {1.1}{\ignorespaces Tabela przedstawiaj\IeC {\k a}ca wyniki pracy w etapie I z uwzgl\IeC {\k e}dnieniem termin\IeC {\'o}w i wykonawc\IeC {\'o}w zadania.\relax }}{4}{table.caption.1}}
\providecommand*\caption@xref[2]{\@setref\relax\@undefined{#1}}
\newlabel{wyniki_projektu}{{1.1}{4}{Tabela przedstawiająca wyniki pracy w etapie I z uwzględnieniem terminów i wykonawców zadania.\relax }{table.caption.1}{}}
\@writefile{toc}{\contentsline {section}{\numberline {1.3}Zakupy}{5}{section.1.3}}
\@writefile{lot}{\contentsline {table}{\numberline {1.2}{\ignorespaces Wykaz zakupionych \IeC {\'s}rodk\IeC {\'o}w trwa\IeC {\l }ych na potrzeby Projektu.\relax }}{5}{table.caption.2}}
\newlabel{zakupy}{{1.2}{5}{Wykaz zakupionych środków trwałych na potrzeby Projektu.\relax }{table.caption.2}{}}
\@writefile{toc}{\contentsline {section}{\numberline {1.4}Czas pracy i koszty realizacji}{6}{section.1.4}}
\@writefile{lot}{\contentsline {table}{\numberline {1.3}{\ignorespaces Podzia\IeC {\l } zada\IeC {\'n} na czas pracy i wykonawc\IeC {\'o}w\relax }}{6}{table.caption.3}}
\newlabel{harmonogram}{{1.3}{6}{Podział zadań na czas pracy i wykonawców\relax }{table.caption.3}{}}
\@writefile{toc}{\contentsline {section}{\numberline {1.5}Wykaz publikacji powsta\IeC {\l }ych w wyniku realizacji Etapu I}{7}{section.1.5}}
\citation{MobBio_db}
\citation{MMB_Arnowitx_db}
\citation{BioSecure_db}
\@writefile{toc}{\contentsline {chapter}{\numberline {2}Sprawozdanie merytoryczne}{8}{chapter.2}}
\@writefile{lof}{\addvspace {10\p@ }}
\@writefile{lot}{\addvspace {10\p@ }}
\@writefile{toc}{\contentsline {section}{\numberline {2.1}Dotychczasowe prace dotycz\IeC {\k a}ce multimodalnych, mobilnych baz danych}{8}{section.2.1}}
\citation{Pressure}
\@writefile{toc}{\contentsline {section}{\numberline {2.2}Wykorzystywane urz\IeC {\k a}dzenia mobilne}{10}{section.2.2}}
\@writefile{toc}{\contentsline {subsection}{\numberline {2.2.1}Telefon kom\IeC {\'o}rkowy Huawei Mate S 128GB}{10}{subsection.2.2.1}}
\@writefile{lof}{\contentsline {figure}{\numberline {2.1}{\ignorespaces Przekr\IeC {\'o}j telefonu Huawei Mate S z pokazanym czujnikiem si\IeC {\l }y nacisku. \newline  [\IeC {\'Z}r\IeC {\'o}d\IeC {\l }o: \url  {http://www.techriot.in/huawei-mate-s-flagship-smartphone-with-} \url  {force-touch- navigation/}] \relax }}{10}{figure.caption.4}}
\newlabel{force}{{2.1}{10}{Przekrój telefonu Huawei Mate S z pokazanym czujnikiem siły nacisku. \newline [Źródło: \url {http://www.techriot.in/huawei-mate-s-flagship-smartphone-with-} \url {force-touch- navigation/}] \relax }{figure.caption.4}{}}
\@writefile{toc}{\contentsline {subsection}{\numberline {2.2.2}Telefon kom\IeC {\'o}rkowy Huawei P9 Lite}{11}{subsection.2.2.2}}
\@writefile{toc}{\contentsline {subsection}{\numberline {2.2.3}Telefon kom\IeC {\'o}rkowy CAT s60 / telefon kom\IeC {\'o}rkowy z kamer\IeC {\k a} FLIR ONE}{11}{subsection.2.2.3}}
\@writefile{toc}{\contentsline {subsubsection}{Wielospektralne obrazowanie dynamiczne w FLIR ONE}{11}{section*.5}}
\newlabel{msx}{{2.2.3}{11}{Wielospektralne obrazowanie dynamiczne w FLIR ONE}{section*.5}{}}
\@writefile{lof}{\contentsline {figure}{\numberline {2.2}{\ignorespaces Por\IeC {\'o}wnanie obraz\IeC {\'o}w termicznych wykonanych w tradycyjny spos\IeC {\'o}b oraz z zastosowaniem technologii MSX. \relax }}{12}{figure.caption.6}}
\newlabel{normal_vs_MSX}{{2.2}{12}{Porównanie obrazów termicznych wykonanych w tradycyjny sposób oraz z zastosowaniem technologii MSX. \relax }{figure.caption.6}{}}
\@writefile{lot}{\contentsline {table}{\numberline {2.1}{\ignorespaces Specyfikacja kamery termowizyjnej FLIR ONE dla systemu Android.\relax }}{12}{table.caption.7}}
\newlabel{tab_pkt}{{2.1}{12}{Specyfikacja kamery termowizyjnej FLIR ONE dla systemu Android.\relax }{table.caption.7}{}}
\@writefile{toc}{\contentsline {section}{\numberline {2.3}Aplikacje do pobierania danych biometrycznych}{13}{section.2.3}}
\@writefile{toc}{\contentsline {subsection}{\numberline {2.3.1}Aplikacja do akwizycji podpisu}{13}{subsection.2.3.1}}
\@writefile{lof}{\contentsline {figure}{\numberline {2.3}{\ignorespaces Zrzuty ekranu aplikacji. {\bf  Pierwszy:} ekran umo\IeC {\.z}liwiaj\IeC {\k a}cy wyb\IeC {\'o}r typu realizacji podpisu: oryginalny lub fa\IeC {\l }szerstwo. {\bf  Drugi:} ekran przedstawiaj\IeC {\k a}cy formatk\IeC {\k e} do wype\IeC {\l }nienia w przypadku sk\IeC {\l }adania podpisu oryginalnego. {\bf  Trzeci:} ekran przedstawiaj\IeC {\k a}cy formatk\IeC {\k e} do wype\IeC {\l }nienia w przypadku wykonywania fa\IeC {\l }szerstwa.\relax }}{13}{figure.caption.8}}
\newlabel{podpis_ekrany_pocz\IeC {\k a}tkowe}{{2.3}{13}{Zrzuty ekranu aplikacji. {\bf Pierwszy:} ekran umożliwiający wybór typu realizacji podpisu: oryginalny lub fałszerstwo. {\bf Drugi:} ekran przedstawiający formatkę do wypełnienia w przypadku składania podpisu oryginalnego. {\bf Trzeci:} ekran przedstawiający formatkę do wypełnienia w przypadku wykonywania fałszerstwa.\relax }{figure.caption.8}{}}
\@writefile{lof}{\contentsline {figure}{\numberline {2.4}{\ignorespaces Zrzuty ekranu aplikacji. {\bf  Pierwszy:} ekran podsumowuj\IeC {\k a}cy wprowadzone dane w przypadku podpisu oryginalnego. {\bf  Drugi:} kran podsumowuj\IeC {\k a}cy wprowadzone dane w przypadku fa\IeC {\l }szerstwa.\relax }}{14}{figure.caption.9}}
\newlabel{podpis_ekrany_zatw}{{2.4}{14}{Zrzuty ekranu aplikacji. {\bf Pierwszy:} ekran podsumowujący wprowadzone dane w przypadku podpisu oryginalnego. {\bf Drugi:} kran podsumowujący wprowadzone dane w przypadku fałszerstwa.\relax }{figure.caption.9}{}}
\@writefile{lof}{\contentsline {figure}{\numberline {2.5}{\ignorespaces Zrzuty ekranu aplikacji. {\bf  Pierwszy:} ekran umo\IeC {\.z}liwiaj\IeC {\k a}cy wykonanie podpisu odr\IeC {\k e}cznego. {\bf  Drugi:} ekran przedstawiaj\IeC {\k a}cy zapis realizacji podpisu do pliku. {\bf  Trzeci:} ekran przedstawiaj\IeC {\k a}cy popraw\IeC {\k e} podpisu.\relax }}{15}{figure.caption.10}}
\newlabel{podpis_skladanie}{{2.5}{15}{Zrzuty ekranu aplikacji. {\bf Pierwszy:} ekran umożliwiający wykonanie podpisu odręcznego. {\bf Drugi:} ekran przedstawiający zapis realizacji podpisu do pliku. {\bf Trzeci:} ekran przedstawiający poprawę podpisu.\relax }{figure.caption.10}{}}
\@writefile{lof}{\contentsline {figure}{\numberline {2.6}{\ignorespaces {\bf  Pierwszy obraz:} katalog z zapisanymi plikami. {\bf  Drugi obraz:} struktura zapisywanego pliku.\relax }}{16}{figure.caption.11}}
\newlabel{katalog}{{2.6}{16}{{\bf Pierwszy obraz:} katalog z zapisanymi plikami. {\bf Drugi obraz:} struktura zapisywanego pliku.\relax }{figure.caption.11}{}}
\@writefile{toc}{\contentsline {subsection}{\numberline {2.3.2}Aplikacja do akwizycji g\IeC {\l }osu}{16}{subsection.2.3.2}}
\@writefile{lof}{\contentsline {figure}{\numberline {2.7}{\ignorespaces Zrzut ekranu aplikacji i listy wygenerowanych plik\IeC {\'o}w w strukturze katalog\IeC {\'o}w.\relax }}{17}{figure.caption.12}}
\newlabel{ekrany_glowne_glos}{{2.7}{17}{Zrzut ekranu aplikacji i listy wygenerowanych plików w strukturze katalogów.\relax }{figure.caption.12}{}}
\@writefile{toc}{\contentsline {subsection}{\numberline {2.3.3}Aplikacja do akwizycji danych termicznych}{17}{subsection.2.3.3}}
\@writefile{lof}{\contentsline {figure}{\numberline {2.8}{\ignorespaces Zrzuty ekranu aplikacji. {\bf  Pierwszy ekran:} umo\IeC {\.z}liwia wyb\IeC {\'o}r mierzonej charakterystyki: d\IeC {\l }o\IeC {\'n} lub twarz. {\bf  Drugi:} ekran przedstawiaj\IeC {\k a}cy mo\IeC {\.z}liwo\IeC {\'s}ci wyboru parametr\IeC {\'o}w okre\IeC {\'s}laj\IeC {\k a}cych po\IeC {\l }o\IeC {\.z}enie d\IeC {\l }oni: lewa lub prawa r\IeC {\k e}ka oraz strona wewn\IeC {\k e}trzna lub strona grzbietowa d\IeC {\l }oni. {\bf  Trzeci:} przedstawia mo\IeC {\.z}liwo\IeC {\'s}ci wyboru parametr\IeC {\'o}w okre\IeC {\'s}laj\IeC {\k a}cych rodzaj zdj\IeC {\k e}cia twarzy: zdj\IeC {\k e}cie frontalne, profilowe, p\IeC {\'o}\IeC {\l }-profilowe, typu selfie.\relax }}{18}{figure.caption.13}}
\newlabel{ekrany_glowne}{{2.8}{18}{Zrzuty ekranu aplikacji. {\bf Pierwszy ekran:} umożliwia wybór mierzonej charakterystyki: dłoń lub twarz. {\bf Drugi:} ekran przedstawiający możliwości wyboru parametrów określających położenie dłoni: lewa lub prawa ręka oraz strona wewnętrzna lub strona grzbietowa dłoni. {\bf Trzeci:} przedstawia możliwości wyboru parametrów określających rodzaj zdjęcia twarzy: zdjęcie frontalne, profilowe, pół-profilowe, typu selfie.\relax }{figure.caption.13}{}}
\@writefile{lof}{\contentsline {figure}{\numberline {2.9}{\ignorespaces Zrzuty ekranu aplikacji. {\bf  Pierwszy ekran:} umo\IeC {\.z}liwia wyb\IeC {\'o}r mierzonej charakterystyki: d\IeC {\l }o\IeC {\'n} lub twarz. {\bf  Drugi:} ekran przedstawiaj\IeC {\k a}cy mo\IeC {\.z}liwo\IeC {\'s}ci wyboru parametr\IeC {\'o}w okre\IeC {\'s}laj\IeC {\k a}cych po\IeC {\l }o\IeC {\.z}enie d\IeC {\l }oni: lewa lub prawa r\IeC {\k e}ka oraz strona wewn\IeC {\k e}trzna lub strona grzbietowa d\IeC {\l }oni. {\bf  Trzeci:} przedstawia mo\IeC {\.z}liwo\IeC {\'s}ci wyboru parametr\IeC {\'o}w okre\IeC {\'s}laj\IeC {\k a}cych rodzaj zdj\IeC {\k e}cia twarzy: zdj\IeC {\k e}cie frontalne, profilowe, p\IeC {\'o}\IeC {\l }-profilowe, typu selfie.\relax }}{18}{figure.caption.14}}
\newlabel{termika_ekran_kamery}{{2.9}{18}{Zrzuty ekranu aplikacji. {\bf Pierwszy ekran:} umożliwia wybór mierzonej charakterystyki: dłoń lub twarz. {\bf Drugi:} ekran przedstawiający możliwości wyboru parametrów określających położenie dłoni: lewa lub prawa ręka oraz strona wewnętrzna lub strona grzbietowa dłoni. {\bf Trzeci:} przedstawia możliwości wyboru parametrów określających rodzaj zdjęcia twarzy: zdjęcie frontalne, profilowe, pół-profilowe, typu selfie.\relax }{figure.caption.14}{}}
\@writefile{toc}{\contentsline {section}{\numberline {2.4}Scenariusze pobierania danych}{19}{section.2.4}}
\@writefile{toc}{\contentsline {section}{\numberline {2.5}Stanowisko do pobierania danych}{22}{section.2.5}}
\@writefile{lof}{\contentsline {figure}{\numberline {2.10}{\ignorespaces Zdj\IeC {\k e}cie stanowiska do pobierania danych.\relax }}{22}{figure.caption.21}}
\newlabel{stanowisko}{{2.10}{22}{Zdjęcie stanowiska do pobierania danych.\relax }{figure.caption.21}{}}
\bibcite{thermalThesis}{1}
\bibcite{MobBio_db}{2}
\bibcite{MMB_Arnowitx_db}{3}
\bibcite{BioSecure_db}{4}
\bibcite{Pressure}{5}
