\relax 
\providecommand\hyper@newdestlabel[2]{}
\providecommand\HyperFirstAtBeginDocument{\AtBeginDocument}
\HyperFirstAtBeginDocument{\ifx\hyper@anchor\@undefined
\global\let\oldcontentsline\contentsline
\gdef\contentsline#1#2#3#4{\oldcontentsline{#1}{#2}{#3}}
\global\let\oldnewlabel\newlabel
\gdef\newlabel#1#2{\newlabelxx{#1}#2}
\gdef\newlabelxx#1#2#3#4#5#6{\oldnewlabel{#1}{{#2}{#3}}}
\AtEndDocument{\ifx\hyper@anchor\@undefined
\let\contentsline\oldcontentsline
\let\newlabel\oldnewlabel
\fi}
\fi}
\global\let\hyper@last\relax 
\gdef\HyperFirstAtBeginDocument#1{#1}
\providecommand\HyField@AuxAddToFields[1]{}
\providecommand\HyField@AuxAddToCoFields[2]{}
\@writefile{toc}{\contentsline {chapter}{\numberline {1}Podsumowanie etapu II}{3}{chapter.1}}
\@writefile{lof}{\addvspace {10\p@ }}
\@writefile{lot}{\addvspace {10\p@ }}
\@writefile{toc}{\contentsline {section}{\numberline {1.1}Wst\IeC {\k e}p}{3}{section.1.1}}
\@writefile{toc}{\contentsline {section}{\numberline {1.2}Wyniki}{4}{section.1.2}}
\@writefile{lot}{\contentsline {table}{\numberline {1.1}{\ignorespaces Tabela przedstawiaj\IeC {\k a}ca wyniki pracy w etapie II z uwzgl\IeC {\k e}dnieniem termin\IeC {\'o}w i wykonawc\IeC {\'o}w zadania.\relax }}{4}{table.caption.1}}
\providecommand*\caption@xref[2]{\@setref\relax\@undefined{#1}}
\newlabel{wyniki_projektu}{{1.1}{4}{Tabela przedstawiająca wyniki pracy w etapie II z uwzględnieniem terminów i wykonawców zadania.\relax }{table.caption.1}{}}
\@writefile{toc}{\contentsline {section}{\numberline {1.3}Zakupy}{5}{section.1.3}}
\@writefile{lot}{\contentsline {table}{\numberline {1.2}{\ignorespaces Wykaz zakupionych \IeC {\'s}rodk\IeC {\'o}w trwa\IeC {\l }ych na potrzeby Projektu.\relax }}{5}{table.caption.2}}
\newlabel{zakupy}{{1.2}{5}{Wykaz zakupionych środków trwałych na potrzeby Projektu.\relax }{table.caption.2}{}}
\@writefile{toc}{\contentsline {section}{\numberline {1.4}Czas pracy i koszty realizacji}{6}{section.1.4}}
\@writefile{lot}{\contentsline {table}{\numberline {1.3}{\ignorespaces Podzia\IeC {\l } zada\IeC {\'n} na czas pracy i wykonawc\IeC {\'o}w\relax }}{6}{table.caption.3}}
\newlabel{harmonogram}{{1.3}{6}{Podział zadań na czas pracy i wykonawców\relax }{table.caption.3}{}}
\@writefile{toc}{\contentsline {section}{\numberline {1.5}Wykaz publikacji powsta\IeC {\l }ych w wyniku realizacji Etapu II}{7}{section.1.5}}
\citation{EtapI}
\@writefile{toc}{\contentsline {chapter}{\numberline {2}Sprawozdanie merytoryczne}{8}{chapter.2}}
\@writefile{lof}{\addvspace {10\p@ }}
\@writefile{lot}{\addvspace {10\p@ }}
\@writefile{toc}{\contentsline {section}{\numberline {2.1}Baza MobiBits}{8}{section.2.1}}
\@writefile{toc}{\contentsline {section}{\numberline {2.2}Stanowisko pomiarowe}{8}{section.2.2}}
\@writefile{lot}{\contentsline {table}{\numberline {2.1}{\ignorespaces Zestawienie wykorzystywanych urz\IeC {\k a}dze\IeC {\'n} mobilnych do pobierania okre\IeC {\'s}lonych modalno\IeC {\'s}ci\relax }}{9}{table.caption.4}}
\newlabel{Tab:telefonyModalnosci}{{2.1}{9}{Zestawienie wykorzystywanych urządzeń mobilnych do pobierania określonych modalności\relax }{table.caption.4}{}}
\@writefile{lof}{\contentsline {figure}{\numberline {2.1}{\ignorespaces Zdj\IeC {\k e}cie stanowiska do pobierania danych.\relax }}{9}{figure.caption.5}}
\newlabel{stanowisko}{{2.1}{9}{Zdjęcie stanowiska do pobierania danych.\relax }{figure.caption.5}{}}
\@writefile{toc}{\contentsline {section}{\numberline {2.3}Opis bazy}{10}{section.2.3}}
\@writefile{lof}{\contentsline {figure}{\numberline {2.2}{\ignorespaces Wizualizacja nagrania g\IeC {\l }osu jednej osoby. {\bf  G\IeC {\'o}rny wykres:} przebieg w czasie. {\bf  Dolny wykres:} spektrogram.\relax }}{11}{figure.caption.7}}
\newlabel{voice_images}{{2.2}{11}{Wizualizacja nagrania głosu jednej osoby. {\bf Górny wykres:} przebieg w czasie. {\bf Dolny wykres:} spektrogram.\relax }{figure.caption.7}{}}
\@writefile{lof}{\contentsline {figure}{\numberline {2.3}{\ignorespaces Wizualizacja podpisu jednej osoby - wykresy dw\IeC {\'o}ch parametr\IeC {\'o}w $y(x)$.\relax }}{12}{figure.caption.9}}
\newlabel{signature_images}{{2.3}{12}{Wizualizacja podpisu jednej osoby - wykresy dwóch parametrów $y(x)$.\relax }{figure.caption.9}{}}
\@writefile{lof}{\contentsline {figure}{\numberline {2.4}{\ignorespaces Zdj\IeC {\k e}cia t\IeC {\k e}cz\IeC {\'o}wek pobrane od jednej osoby w kolejnych sesjach pomiarowych.\relax }}{13}{figure.caption.11}}
\newlabel{eye_images}{{2.4}{13}{Zdjęcia tęczówek pobrane od jednej osoby w kolejnych sesjach pomiarowych.\relax }{figure.caption.11}{}}
\@writefile{lof}{\contentsline {figure}{\numberline {2.5}{\ignorespaces Zdj\IeC {\k e}cie twarzy jednej osoby pobrane dla r\IeC {\'o}\IeC {\.z}nych ustawie\IeC {\'n} twarzy. {\bf  Pierwszy rz\IeC {\k a}d:} zdj\IeC {\k e}cia w \IeC {\'s}wietle widzialnym. {\bf  Drugi rz\IeC {\k a}d:} zdj\IeC {\k e}cie termiczne (interpretacja kolorystyczna)\relax }}{14}{figure.caption.13}}
\newlabel{face_images}{{2.5}{14}{Zdjęcie twarzy jednej osoby pobrane dla różnych ustawień twarzy. {\bf Pierwszy rząd:} zdjęcia w świetle widzialnym. {\bf Drugi rząd:} zdjęcie termiczne (interpretacja kolorystyczna)\relax }{figure.caption.13}{}}
\@writefile{lof}{\contentsline {figure}{\numberline {2.6}{\ignorespaces Zdj\IeC {\k e}cie stanowiska do pobierania danych.\relax }}{16}{figure.caption.16}}
\newlabel{hand_images}{{2.6}{16}{Zdjęcie stanowiska do pobierania danych.\relax }{figure.caption.16}{}}
\citation{MobBio_db}
\citation{MMB_Arnowitx_db}
\citation{BioSecure_db}
\@writefile{lot}{\contentsline {table}{\numberline {2.2}{\ignorespaces Zestawienie zgromadzonych danych\relax }}{17}{table.caption.18}}
\newlabel{stats}{{2.2}{17}{Zestawienie zgromadzonych danych\relax }{table.caption.18}{}}
\@writefile{lot}{\contentsline {table}{\numberline {2.3}{\ignorespaces Por\IeC {\'o}wnanie multimodalnych baz danych pobieranych urz\IeC {\k a}dzeniami mobilnymi\relax }}{18}{table.caption.20}}
\newlabel{harmonogram}{{2.3}{18}{Porównanie multimodalnych baz danych pobieranych urządzeniami mobilnymi\relax }{table.caption.20}{}}
\@writefile{toc}{\contentsline {chapter}{\numberline {3}Scenariusz testowania}{19}{chapter.3}}
\@writefile{lof}{\addvspace {10\p@ }}
\@writefile{lot}{\addvspace {10\p@ }}
\newlabel{fig:schemat}{{\caption@xref {fig:schemat}{ on input line 562}}{19}{SCHEMAT SYSTEMU BIOMETRYCZNEGO}{figure.caption.22}{}}
\@writefile{lof}{\contentsline {figure}{\numberline {3.1}{\ignorespaces Podstawowy schemat systemu biometrycznego.\relax }}{19}{figure.caption.22}}
\newlabel{fig:ROC}{{\caption@xref {fig:ROC}{ on input line 667}}{23}{GRAFICZNA PREZENTACJA WYNIKÓW}{figure.caption.26}{}}
\@writefile{lof}{\contentsline {figure}{\numberline {3.2}{\ignorespaces Przyk\IeC {\l }adowe krzywe ROC dla kilku r\IeC {\'o}\IeC {\.z}nych system\IeC {\'o}w biometrycznych dzia\IeC {\l }aj\IeC {\k a}cych w tych samych warunkach.\relax }}{23}{figure.caption.26}}
\newlabel{fig:CMC}{{\caption@xref {fig:CMC}{ on input line 678}}{24}{GRAFICZNA PREZENTACJA WYNIKÓW}{figure.caption.27}{}}
\@writefile{lof}{\contentsline {figure}{\numberline {3.3}{\ignorespaces Przyk\IeC {\l }adowe krzywe CMC dla kilku r\IeC {\'o}\IeC {\.z}nych system\IeC {\'o}w biometrycznych dzia\IeC {\l }aj\IeC {\k a}cych w tych samych warunkach.\relax }}{24}{figure.caption.27}}
\bibcite{EtapI}{1}
\bibcite{thermalThesis}{2}
\bibcite{MobBio_db}{3}
\bibcite{MMB_Arnowitx_db}{4}
\bibcite{BioSecure_db}{5}
\bibcite{Pressure}{6}
