%!PS-Adobe-3.0 EPSF-3.0
%%Creator: (MATLAB, The Mathworks, Inc. Version 9.2.0.556344 \(R2017a\). Operating System: Windows 8)
%%Title: D:/Praca/Magisterka/PracaSzablon/images/ch7/NEURO_roc_MF.eps
%%CreationDate: 2017-11-23T12:31:27
%%Pages: (atend)
%%BoundingBox: 0 0 960 422
%%LanguageLevel: 3
%%EndComments
%%BeginProlog
%%BeginResource: procset (Apache XML Graphics Std ProcSet) 1.2 0
%%Version: 1.2 0
%%Copyright: (Copyright 2001-2003,2010 The Apache Software Foundation. License terms: http://www.apache.org/licenses/LICENSE-2.0)
/bd{bind def}bind def
/ld{load def}bd
/GR/grestore ld
/M/moveto ld
/LJ/setlinejoin ld
/C/curveto ld
/f/fill ld
/LW/setlinewidth ld
/GC/setgray ld
/t/show ld
/N/newpath ld
/CT/concat ld
/cp/closepath ld
/S/stroke ld
/L/lineto ld
/CC/setcmykcolor ld
/A/ashow ld
/GS/gsave ld
/RC/setrgbcolor ld
/RM/rmoveto ld
/ML/setmiterlimit ld
/re {4 2 roll M
1 index 0 rlineto
0 exch rlineto
neg 0 rlineto
cp } bd
/_ctm matrix def
/_tm matrix def
/BT { _ctm currentmatrix pop matrix _tm copy pop 0 0 moveto } bd
/ET { _ctm setmatrix } bd
/iTm { _ctm setmatrix _tm concat } bd
/Tm { _tm astore pop iTm 0 0 moveto } bd
/ux 0.0 def
/uy 0.0 def
/F {
  /Tp exch def
  /Tf exch def
  Tf findfont Tp scalefont setfont
  /cf Tf def  /cs Tp def
} bd
/ULS {currentpoint /uy exch def /ux exch def} bd
/ULE {
  /Tcx currentpoint pop def
  gsave
  newpath
  cf findfont cs scalefont dup
  /FontMatrix get 0 get /Ts exch def /FontInfo get dup
  /UnderlinePosition get Ts mul /To exch def
  /UnderlineThickness get Ts mul /Tt exch def
  ux uy To add moveto  Tcx uy To add lineto
  Tt setlinewidth stroke
  grestore
} bd
/OLE {
  /Tcx currentpoint pop def
  gsave
  newpath
  cf findfont cs scalefont dup
  /FontMatrix get 0 get /Ts exch def /FontInfo get dup
  /UnderlinePosition get Ts mul /To exch def
  /UnderlineThickness get Ts mul /Tt exch def
  ux uy To add cs add moveto Tcx uy To add cs add lineto
  Tt setlinewidth stroke
  grestore
} bd
/SOE {
  /Tcx currentpoint pop def
  gsave
  newpath
  cf findfont cs scalefont dup
  /FontMatrix get 0 get /Ts exch def /FontInfo get dup
  /UnderlinePosition get Ts mul /To exch def
  /UnderlineThickness get Ts mul /Tt exch def
  ux uy To add cs 10 mul 26 idiv add moveto Tcx uy To add cs 10 mul 26 idiv add lineto
  Tt setlinewidth stroke
  grestore
} bd
/QT {
/Y22 exch store
/X22 exch store
/Y21 exch store
/X21 exch store
currentpoint
/Y21 load 2 mul add 3 div exch
/X21 load 2 mul add 3 div exch
/X21 load 2 mul /X22 load add 3 div
/Y21 load 2 mul /Y22 load add 3 div
/X22 load /Y22 load curveto
} bd
/SSPD {
dup length /d exch dict def
{
/v exch def
/k exch def
currentpagedevice k known {
/cpdv currentpagedevice k get def
v cpdv ne {
/upd false def
/nullv v type /nulltype eq def
/nullcpdv cpdv type /nulltype eq def
nullv nullcpdv or
{
/upd true def
} {
/sametype v type cpdv type eq def
sametype {
v type /arraytype eq {
/vlen v length def
/cpdvlen cpdv length def
vlen cpdvlen eq {
0 1 vlen 1 sub {
/i exch def
/obj v i get def
/cpdobj cpdv i get def
obj cpdobj ne {
/upd true def
exit
} if
} for
} {
/upd true def
} ifelse
} {
v type /dicttype eq {
v {
/dv exch def
/dk exch def
/cpddv cpdv dk get def
dv cpddv ne {
/upd true def
exit
} if
} forall
} {
/upd true def
} ifelse
} ifelse
} if
} ifelse
upd true eq {
d k v put
} if
} if
} if
} forall
d length 0 gt {
d setpagedevice
} if
} bd
/RE { % /NewFontName [NewEncodingArray] /FontName RE -
  findfont dup length dict begin
  {
    1 index /FID ne
    {def} {pop pop} ifelse
  } forall
  /Encoding exch def
  /FontName 1 index def
  currentdict definefont pop
  end
} bind def
%%EndResource
%%BeginResource: procset (Apache XML Graphics EPS ProcSet) 1.0 0
%%Version: 1.0 0
%%Copyright: (Copyright 2002-2003 The Apache Software Foundation. License terms: http://www.apache.org/licenses/LICENSE-2.0)
/BeginEPSF { %def
/b4_Inc_state save def         % Save state for cleanup
/dict_count countdictstack def % Count objects on dict stack
/op_count count 1 sub def      % Count objects on operand stack
userdict begin                 % Push userdict on dict stack
/showpage { } def              % Redefine showpage, { } = null proc
0 setgray 0 setlinecap         % Prepare graphics state
1 setlinewidth 0 setlinejoin
10 setmiterlimit [ ] 0 setdash newpath
/languagelevel where           % If level not equal to 1 then
{pop languagelevel             % set strokeadjust and
1 ne                           % overprint to their defaults.
{false setstrokeadjust false setoverprint
} if
} if
} bd
/EndEPSF { %def
count op_count sub {pop} repeat            % Clean up stacks
countdictstack dict_count sub {end} repeat
b4_Inc_state restore
} bd
%%EndResource
%FOPBeginFontDict
%%IncludeResource: font Courier-Bold
%%IncludeResource: font Helvetica
%%IncludeResource: font Courier-BoldOblique
%%IncludeResource: font Courier-Oblique
%%IncludeResource: font Times-Roman
%%IncludeResource: font Helvetica-BoldOblique
%%IncludeResource: font Helvetica-Bold
%%IncludeResource: font Helvetica-Oblique
%%IncludeResource: font Times-BoldItalic
%%IncludeResource: font Courier
%%IncludeResource: font Times-Italic
%%IncludeResource: font Times-Bold
%%IncludeResource: font Symbol
%%IncludeResource: font ZapfDingbats
%FOPEndFontDict
%%BeginResource: encoding WinAnsiEncoding
/WinAnsiEncoding [
/.notdef /.notdef /.notdef /.notdef /.notdef
/.notdef /.notdef /.notdef /.notdef /.notdef
/.notdef /.notdef /.notdef /.notdef /.notdef
/.notdef /.notdef /.notdef /.notdef /.notdef
/.notdef /.notdef /.notdef /.notdef /.notdef
/.notdef /.notdef /.notdef /.notdef /.notdef
/.notdef /.notdef /space /exclam /quotedbl
/numbersign /dollar /percent /ampersand /quotesingle
/parenleft /parenright /asterisk /plus /comma
/hyphen /period /slash /zero /one
/two /three /four /five /six
/seven /eight /nine /colon /semicolon
/less /equal /greater /question /at
/A /B /C /D /E
/F /G /H /I /J
/K /L /M /N /O
/P /Q /R /S /T
/U /V /W /X /Y
/Z /bracketleft /backslash /bracketright /asciicircum
/underscore /quoteleft /a /b /c
/d /e /f /g /h
/i /j /k /l /m
/n /o /p /q /r
/s /t /u /v /w
/x /y /z /braceleft /bar
/braceright /asciitilde /bullet /Euro /bullet
/quotesinglbase /florin /quotedblbase /ellipsis /dagger
/daggerdbl /circumflex /perthousand /Scaron /guilsinglleft
/OE /bullet /Zcaron /bullet /bullet
/quoteleft /quoteright /quotedblleft /quotedblright /bullet
/endash /emdash /asciitilde /trademark /scaron
/guilsinglright /oe /bullet /zcaron /Ydieresis
/space /exclamdown /cent /sterling /currency
/yen /brokenbar /section /dieresis /copyright
/ordfeminine /guillemotleft /logicalnot /sfthyphen /registered
/macron /degree /plusminus /twosuperior /threesuperior
/acute /mu /paragraph /middot /cedilla
/onesuperior /ordmasculine /guillemotright /onequarter /onehalf
/threequarters /questiondown /Agrave /Aacute /Acircumflex
/Atilde /Adieresis /Aring /AE /Ccedilla
/Egrave /Eacute /Ecircumflex /Edieresis /Igrave
/Iacute /Icircumflex /Idieresis /Eth /Ntilde
/Ograve /Oacute /Ocircumflex /Otilde /Odieresis
/multiply /Oslash /Ugrave /Uacute /Ucircumflex
/Udieresis /Yacute /Thorn /germandbls /agrave
/aacute /acircumflex /atilde /adieresis /aring
/ae /ccedilla /egrave /eacute /ecircumflex
/edieresis /igrave /iacute /icircumflex /idieresis
/eth /ntilde /ograve /oacute /ocircumflex
/otilde /odieresis /divide /oslash /ugrave
/uacute /ucircumflex /udieresis /yacute /thorn
/ydieresis
] def
%%EndResource
%FOPBeginFontReencode
/Courier-Bold findfont
dup length dict begin
  {1 index /FID ne {def} {pop pop} ifelse} forall
  /Encoding WinAnsiEncoding def
  currentdict
end
/Courier-Bold exch definefont pop
/Helvetica findfont
dup length dict begin
  {1 index /FID ne {def} {pop pop} ifelse} forall
  /Encoding WinAnsiEncoding def
  currentdict
end
/Helvetica exch definefont pop
/Courier-BoldOblique findfont
dup length dict begin
  {1 index /FID ne {def} {pop pop} ifelse} forall
  /Encoding WinAnsiEncoding def
  currentdict
end
/Courier-BoldOblique exch definefont pop
/Courier-Oblique findfont
dup length dict begin
  {1 index /FID ne {def} {pop pop} ifelse} forall
  /Encoding WinAnsiEncoding def
  currentdict
end
/Courier-Oblique exch definefont pop
/Times-Roman findfont
dup length dict begin
  {1 index /FID ne {def} {pop pop} ifelse} forall
  /Encoding WinAnsiEncoding def
  currentdict
end
/Times-Roman exch definefont pop
/Helvetica-BoldOblique findfont
dup length dict begin
  {1 index /FID ne {def} {pop pop} ifelse} forall
  /Encoding WinAnsiEncoding def
  currentdict
end
/Helvetica-BoldOblique exch definefont pop
/Helvetica-Bold findfont
dup length dict begin
  {1 index /FID ne {def} {pop pop} ifelse} forall
  /Encoding WinAnsiEncoding def
  currentdict
end
/Helvetica-Bold exch definefont pop
/Helvetica-Oblique findfont
dup length dict begin
  {1 index /FID ne {def} {pop pop} ifelse} forall
  /Encoding WinAnsiEncoding def
  currentdict
end
/Helvetica-Oblique exch definefont pop
/Times-BoldItalic findfont
dup length dict begin
  {1 index /FID ne {def} {pop pop} ifelse} forall
  /Encoding WinAnsiEncoding def
  currentdict
end
/Times-BoldItalic exch definefont pop
/Courier findfont
dup length dict begin
  {1 index /FID ne {def} {pop pop} ifelse} forall
  /Encoding WinAnsiEncoding def
  currentdict
end
/Courier exch definefont pop
/Times-Italic findfont
dup length dict begin
  {1 index /FID ne {def} {pop pop} ifelse} forall
  /Encoding WinAnsiEncoding def
  currentdict
end
/Times-Italic exch definefont pop
/Times-Bold findfont
dup length dict begin
  {1 index /FID ne {def} {pop pop} ifelse} forall
  /Encoding WinAnsiEncoding def
  currentdict
end
/Times-Bold exch definefont pop
%FOPEndFontReencode
%%EndProlog
%%Page: 1 1
%%PageBoundingBox: 0 0 960 422
%%BeginPageSetup
[1 0 0 -1 0 422] CT
%%EndPageSetup
GS
[0.5 0 0 0.5 0 0] CT
1 GC
N
0 0 1920 844 re
f
GR
GS
[0.5 0 0 0.5 0 0] CT
1 GC
N
0 0 1920 844 re
f
GR
GS
[0.5 0 0 0.5 0 0] CT
1 GC
N
250 725 M
1738 725 L
1738 63 L
250 63 L
cp
f
GR
GS
[0.5 0 0 0.5 0 0] CT
0.149 GC
2 setlinecap
1 LJ
N
250 725 M
1738 725 L
S
GR
GS
[0.5 0 0 0.5 0 0] CT
0.149 GC
2 setlinecap
1 LJ
N
250 63 M
1738 63 L
S
GR
GS
[0.5 0 0 0.5 0 0] CT
0.149 GC
2 setlinecap
1 LJ
N
250 725 M
250 710.12 L
S
GR
GS
[0.5 0 0 0.5 0 0] CT
0.149 GC
2 setlinecap
1 LJ
N
746 725 M
746 710.12 L
S
GR
GS
[0.5 0 0 0.5 0 0] CT
0.149 GC
2 setlinecap
1 LJ
N
1242 725 M
1242 710.12 L
S
GR
GS
[0.5 0 0 0.5 0 0] CT
0.149 GC
2 setlinecap
1 LJ
N
1738 725 M
1738 710.12 L
S
GR
GS
[0.5 0 0 0.5 0 0] CT
0.149 GC
2 setlinecap
1 LJ
N
250 63 M
250 77.88 L
S
GR
GS
[0.5 0 0 0.5 0 0] CT
0.149 GC
2 setlinecap
1 LJ
N
746 63 M
746 77.88 L
S
GR
GS
[0.5 0 0 0.5 0 0] CT
0.149 GC
2 setlinecap
1 LJ
N
1242 63 M
1242 77.88 L
S
GR
GS
[0.5 0 0 0.5 0 0] CT
0.149 GC
2 setlinecap
1 LJ
N
1738 63 M
1738 77.88 L
S
GR
GS
[0.5 0 0 0.5 0 0] CT
0.149 GC
2 setlinecap
1 LJ
N
250 725 M
250 717.56 L
S
GR
GS
[0.5 0 0 0.5 0 0] CT
0.149 GC
2 setlinecap
1 LJ
N
399.311 725 M
399.311 717.56 L
S
GR
GS
[0.5 0 0 0.5 0 0] CT
0.149 GC
2 setlinecap
1 LJ
N
486.652 725 M
486.652 717.56 L
S
GR
GS
[0.5 0 0 0.5 0 0] CT
0.149 GC
2 setlinecap
1 LJ
N
548.622 725 M
548.622 717.56 L
S
GR
GS
[0.5 0 0 0.5 0 0] CT
0.149 GC
2 setlinecap
1 LJ
N
596.689 725 M
596.689 717.56 L
S
GR
GS
[0.5 0 0 0.5 0 0] CT
0.149 GC
2 setlinecap
1 LJ
N
635.963 725 M
635.963 717.56 L
S
GR
GS
[0.5 0 0 0.5 0 0] CT
0.149 GC
2 setlinecap
1 LJ
N
669.169 725 M
669.169 717.56 L
S
GR
GS
[0.5 0 0 0.5 0 0] CT
0.149 GC
2 setlinecap
1 LJ
N
697.933 725 M
697.933 717.56 L
S
GR
GS
[0.5 0 0 0.5 0 0] CT
0.149 GC
2 setlinecap
1 LJ
N
723.304 725 M
723.304 717.56 L
S
GR
GS
[0.5 0 0 0.5 0 0] CT
0.149 GC
2 setlinecap
1 LJ
N
746 725 M
746 717.56 L
S
GR
GS
[0.5 0 0 0.5 0 0] CT
0.149 GC
2 setlinecap
1 LJ
N
895.311 725 M
895.311 717.56 L
S
GR
GS
[0.5 0 0 0.5 0 0] CT
0.149 GC
2 setlinecap
1 LJ
N
982.652 725 M
982.652 717.56 L
S
GR
GS
[0.5 0 0 0.5 0 0] CT
0.149 GC
2 setlinecap
1 LJ
N
1044.622 725 M
1044.622 717.56 L
S
GR
GS
[0.5 0 0 0.5 0 0] CT
0.149 GC
2 setlinecap
1 LJ
N
1092.689 725 M
1092.689 717.56 L
S
GR
GS
[0.5 0 0 0.5 0 0] CT
0.149 GC
2 setlinecap
1 LJ
N
1131.963 725 M
1131.963 717.56 L
S
GR
GS
[0.5 0 0 0.5 0 0] CT
0.149 GC
2 setlinecap
1 LJ
N
1165.169 725 M
1165.169 717.56 L
S
GR
GS
[0.5 0 0 0.5 0 0] CT
0.149 GC
2 setlinecap
1 LJ
N
1193.933 725 M
1193.933 717.56 L
S
GR
GS
[0.5 0 0 0.5 0 0] CT
0.149 GC
2 setlinecap
1 LJ
N
1219.304 725 M
1219.304 717.56 L
S
GR
GS
[0.5 0 0 0.5 0 0] CT
0.149 GC
2 setlinecap
1 LJ
N
1242 725 M
1242 717.56 L
S
GR
GS
[0.5 0 0 0.5 0 0] CT
0.149 GC
2 setlinecap
1 LJ
N
1391.311 725 M
1391.311 717.56 L
S
GR
GS
[0.5 0 0 0.5 0 0] CT
0.149 GC
2 setlinecap
1 LJ
N
1478.652 725 M
1478.652 717.56 L
S
GR
GS
[0.5 0 0 0.5 0 0] CT
0.149 GC
2 setlinecap
1 LJ
N
1540.622 725 M
1540.622 717.56 L
S
GR
GS
[0.5 0 0 0.5 0 0] CT
0.149 GC
2 setlinecap
1 LJ
N
1588.689 725 M
1588.689 717.56 L
S
GR
GS
[0.5 0 0 0.5 0 0] CT
0.149 GC
2 setlinecap
1 LJ
N
1627.963 725 M
1627.963 717.56 L
S
GR
GS
[0.5 0 0 0.5 0 0] CT
0.149 GC
2 setlinecap
1 LJ
N
1661.169 725 M
1661.169 717.56 L
S
GR
GS
[0.5 0 0 0.5 0 0] CT
0.149 GC
2 setlinecap
1 LJ
N
1689.933 725 M
1689.933 717.56 L
S
GR
GS
[0.5 0 0 0.5 0 0] CT
0.149 GC
2 setlinecap
1 LJ
N
1715.304 725 M
1715.304 717.56 L
S
GR
GS
[0.5 0 0 0.5 0 0] CT
0.149 GC
2 setlinecap
1 LJ
N
1738 725 M
1738 717.56 L
S
GR
GS
[0.5 0 0 0.5 0 0] CT
0.149 GC
2 setlinecap
1 LJ
N
250 63 M
250 70.44 L
S
GR
GS
[0.5 0 0 0.5 0 0] CT
0.149 GC
2 setlinecap
1 LJ
N
399.311 63 M
399.311 70.44 L
S
GR
GS
[0.5 0 0 0.5 0 0] CT
0.149 GC
2 setlinecap
1 LJ
N
486.652 63 M
486.652 70.44 L
S
GR
GS
[0.5 0 0 0.5 0 0] CT
0.149 GC
2 setlinecap
1 LJ
N
548.622 63 M
548.622 70.44 L
S
GR
GS
[0.5 0 0 0.5 0 0] CT
0.149 GC
2 setlinecap
1 LJ
N
596.689 63 M
596.689 70.44 L
S
GR
GS
[0.5 0 0 0.5 0 0] CT
0.149 GC
2 setlinecap
1 LJ
N
635.963 63 M
635.963 70.44 L
S
GR
GS
[0.5 0 0 0.5 0 0] CT
0.149 GC
2 setlinecap
1 LJ
N
669.169 63 M
669.169 70.44 L
S
GR
GS
[0.5 0 0 0.5 0 0] CT
0.149 GC
2 setlinecap
1 LJ
N
697.933 63 M
697.933 70.44 L
S
GR
GS
[0.5 0 0 0.5 0 0] CT
0.149 GC
2 setlinecap
1 LJ
N
723.304 63 M
723.304 70.44 L
S
GR
GS
[0.5 0 0 0.5 0 0] CT
0.149 GC
2 setlinecap
1 LJ
N
746 63 M
746 70.44 L
S
GR
GS
[0.5 0 0 0.5 0 0] CT
0.149 GC
2 setlinecap
1 LJ
N
895.311 63 M
895.311 70.44 L
S
GR
GS
[0.5 0 0 0.5 0 0] CT
0.149 GC
2 setlinecap
1 LJ
N
982.652 63 M
982.652 70.44 L
S
GR
GS
[0.5 0 0 0.5 0 0] CT
0.149 GC
2 setlinecap
1 LJ
N
1044.622 63 M
1044.622 70.44 L
S
GR
GS
[0.5 0 0 0.5 0 0] CT
0.149 GC
2 setlinecap
1 LJ
N
1092.689 63 M
1092.689 70.44 L
S
GR
GS
[0.5 0 0 0.5 0 0] CT
0.149 GC
2 setlinecap
1 LJ
N
1131.963 63 M
1131.963 70.44 L
S
GR
GS
[0.5 0 0 0.5 0 0] CT
0.149 GC
2 setlinecap
1 LJ
N
1165.169 63 M
1165.169 70.44 L
S
GR
GS
[0.5 0 0 0.5 0 0] CT
0.149 GC
2 setlinecap
1 LJ
N
1193.933 63 M
1193.933 70.44 L
S
GR
GS
[0.5 0 0 0.5 0 0] CT
0.149 GC
2 setlinecap
1 LJ
N
1219.304 63 M
1219.304 70.44 L
S
GR
GS
[0.5 0 0 0.5 0 0] CT
0.149 GC
2 setlinecap
1 LJ
N
1242 63 M
1242 70.44 L
S
GR
GS
[0.5 0 0 0.5 0 0] CT
0.149 GC
2 setlinecap
1 LJ
N
1391.311 63 M
1391.311 70.44 L
S
GR
GS
[0.5 0 0 0.5 0 0] CT
0.149 GC
2 setlinecap
1 LJ
N
1478.652 63 M
1478.652 70.44 L
S
GR
GS
[0.5 0 0 0.5 0 0] CT
0.149 GC
2 setlinecap
1 LJ
N
1540.622 63 M
1540.622 70.44 L
S
GR
GS
[0.5 0 0 0.5 0 0] CT
0.149 GC
2 setlinecap
1 LJ
N
1588.689 63 M
1588.689 70.44 L
S
GR
GS
[0.5 0 0 0.5 0 0] CT
0.149 GC
2 setlinecap
1 LJ
N
1627.963 63 M
1627.963 70.44 L
S
GR
GS
[0.5 0 0 0.5 0 0] CT
0.149 GC
2 setlinecap
1 LJ
N
1661.169 63 M
1661.169 70.44 L
S
GR
GS
[0.5 0 0 0.5 0 0] CT
0.149 GC
2 setlinecap
1 LJ
N
1689.933 63 M
1689.933 70.44 L
S
GR
GS
[0.5 0 0 0.5 0 0] CT
0.149 GC
2 setlinecap
1 LJ
N
1715.304 63 M
1715.304 70.44 L
S
GR
GS
[0.5 0 0 0.5 0 0] CT
0.149 GC
2 setlinecap
1 LJ
N
1738 63 M
1738 70.44 L
S
GR
GS
[0.5 0 0 0.5 108 392] CT
0.149 GC
/Helvetica 36 F
GS
[1 0 0 1 0 0] CT
0 0 moveto 
1 -1 scale
(10) t 
GR
GR
GS
[0.5 0 0 0.5 128.5 383] CT
0.149 GC
/Helvetica 28.8 F
GS
[1 0 0 1 0 0] CT
0 0 moveto 
1 -1 scale
(-3) t 
GR
GR
GS
[0.5 0 0 0.5 356 392] CT
0.149 GC
/Helvetica 36 F
GS
[1 0 0 1 0 0] CT
0 0 moveto 
1 -1 scale
(10) t 
GR
GR
GS
[0.5 0 0 0.5 376.5 383] CT
0.149 GC
/Helvetica 28.8 F
GS
[1 0 0 1 0 0] CT
0 0 moveto 
1 -1 scale
(-2) t 
GR
GR
GS
[0.5 0 0 0.5 604 392] CT
0.149 GC
/Helvetica 36 F
GS
[1 0 0 1 0 0] CT
0 0 moveto 
1 -1 scale
(10) t 
GR
GR
GS
[0.5 0 0 0.5 624.5 383] CT
0.149 GC
/Helvetica 28.8 F
GS
[1 0 0 1 0 0] CT
0 0 moveto 
1 -1 scale
(-1) t 
GR
GR
GS
[0.5 0 0 0.5 854.5 392] CT
0.149 GC
/Helvetica 36 F
GS
[1 0 0 1 0 0] CT
0 0 moveto 
1 -1 scale
(10) t 
GR
GR
GS
[0.5 0 0 0.5 875 383] CT
0.149 GC
/Helvetica 28.8 F
GS
[1 0 0 1 0 0] CT
0 0 moveto 
1 -1 scale
(0) t 
GR
GR
GS
[0.5 0 0 0.5 497.00037 397.10001] CT
0.149 GC
/Helvetica 39.6 F
GS
[1 0 0 1 0 0] CT
-43.5 41 moveto 
1 -1 scale
(FMR) t 
GR
GR
GS
[0.5 0 0 0.5 0 0] CT
0.149 GC
2 setlinecap
1 LJ
N
250 725 M
250 63 L
S
GR
GS
[0.5 0 0 0.5 0 0] CT
0.149 GC
2 setlinecap
1 LJ
N
1738 725 M
1738 63 L
S
GR
GS
[0.5 0 0 0.5 0 0] CT
0.149 GC
2 setlinecap
1 LJ
N
250 725 M
264.88 725 L
S
GR
GS
[0.5 0 0 0.5 0 0] CT
0.149 GC
2 setlinecap
1 LJ
N
250 592.6 M
264.88 592.6 L
S
GR
GS
[0.5 0 0 0.5 0 0] CT
0.149 GC
2 setlinecap
1 LJ
N
250 460.2 M
264.88 460.2 L
S
GR
GS
[0.5 0 0 0.5 0 0] CT
0.149 GC
2 setlinecap
1 LJ
N
250 327.8 M
264.88 327.8 L
S
GR
GS
[0.5 0 0 0.5 0 0] CT
0.149 GC
2 setlinecap
1 LJ
N
250 195.4 M
264.88 195.4 L
S
GR
GS
[0.5 0 0 0.5 0 0] CT
0.149 GC
2 setlinecap
1 LJ
N
250 63 M
264.88 63 L
S
GR
GS
[0.5 0 0 0.5 0 0] CT
0.149 GC
2 setlinecap
1 LJ
N
1738 725 M
1723.12 725 L
S
GR
GS
[0.5 0 0 0.5 0 0] CT
0.149 GC
2 setlinecap
1 LJ
N
1738 592.6 M
1723.12 592.6 L
S
GR
GS
[0.5 0 0 0.5 0 0] CT
0.149 GC
2 setlinecap
1 LJ
N
1738 460.2 M
1723.12 460.2 L
S
GR
GS
[0.5 0 0 0.5 0 0] CT
0.149 GC
2 setlinecap
1 LJ
N
1738 327.8 M
1723.12 327.8 L
S
GR
GS
[0.5 0 0 0.5 0 0] CT
0.149 GC
2 setlinecap
1 LJ
N
1738 195.4 M
1723.12 195.4 L
S
GR
GS
[0.5 0 0 0.5 0 0] CT
0.149 GC
2 setlinecap
1 LJ
N
1738 63 M
1723.12 63 L
S
GR
GS
[0.5 0 0 0.5 119.4 362.5] CT
0.149 GC
/Helvetica 36 F
GS
[1 0 0 1 0 0] CT
-21 14.5 moveto 
1 -1 scale
(0) t 
GR
GR
GS
[0.5 0 0 0.5 119.4 296.29999] CT
0.149 GC
/Helvetica 36 F
GS
[1 0 0 1 0 0] CT
-51 14.5 moveto 
1 -1 scale
(0.2) t 
GR
GR
GS
[0.5 0 0 0.5 119.4 230.09999] CT
0.149 GC
/Helvetica 36 F
GS
[1 0 0 1 0 0] CT
-51 14.5 moveto 
1 -1 scale
(0.4) t 
GR
GR
GS
[0.5 0 0 0.5 119.4 163.89999] CT
0.149 GC
/Helvetica 36 F
GS
[1 0 0 1 0 0] CT
-51 14.5 moveto 
1 -1 scale
(0.6) t 
GR
GR
GS
[0.5 0 0 0.5 119.4 97.7] CT
0.149 GC
/Helvetica 36 F
GS
[1 0 0 1 0 0] CT
-51 14.5 moveto 
1 -1 scale
(0.8) t 
GR
GR
GS
[0.5 0 0 0.5 119.4 31.5] CT
0.149 GC
/Helvetica 36 F
GS
[1 0 0 1 0 0] CT
-21 14.5 moveto 
1 -1 scale
(1) t 
GR
GR
GS
[0 -0.5 0.5 0 90.9 196.99985] CT
0.149 GC
/Helvetica 39.6 F
GS
[1 0 0 1 0 0] CT
-87 -9 moveto 
1 -1 scale
(1 - FNMR) t 
GR
GR
GS
[0.5 0 0 0.5 0 0] CT
0 0.447 0.741 RC
1 LJ
4 LW
N
1738 63 M
1737.988 63 L
1737.988 63 L
1737.988 63 L
1737.988 63 L
1737.976 63 L
1737.976 63 L
1737.976 63 L
1737.976 63 L
1737.952 63 L
1737.94 63 L
1737.928 63 L
1737.928 63 L
1737.904 63 L
1737.904 63 L
1737.893 63 L
1737.881 63 L
1737.857 63 L
1737.833 63 L
1737.809 63 L
1737.809 63 L
1737.809 63 L
1737.797 63 L
1737.785 63 L
1737.785 63 L
1737.749 63 L
1737.725 63 L
1737.713 63 L
1737.713 63 L
1737.666 63 L
1737.63 63 L
1737.594 63 L
1737.51 63 L
1737.474 63 L
1737.45 63 L
1737.438 63 L
1737.39 63 L
1737.295 63 L
1737.223 63 L
1737.163 63 L
1737.031 63 L
1736.875 63 L
1736.779 63 L
1736.635 63 L
1736.563 63 L
1736.443 63 L
1736.298 63 L
1736.154 63 L
1736.01 63 L
1735.805 63 L
1735.418 63 L
1735.201 63 L
1734.911 63 L
1734.571 63 L
1734.256 63 L
1733.952 63 L
1733.489 63 L
1733.087 63 L
1732.451 63 L
1731.825 63 L
1731.223 63 L
1730.507 63 L
1729.777 63 L
1728.894 63 L
1728.134 63 L
1727.182 63 L
1726.201 63 L
1724.987 63 L
1723.677 63 L
1722.231 63 L
1720.775 63 L
1719.452 63 L
1718.043 63 L
1716.465 63 L
1714.744 63 L
1713.102 63 L
1710.907 63 L
1708.58 63 L
1706.172 63 L
1703.877 63 L
1700.609 63 L
1697.908 63 L
1695.042 63 L
1691.739 63 L
1688.415 63 L
1685.327 63 L
1682.056 63 L
1679.002 63 L
1675.584 63 L
1672.258 63 L
1668.945 63 L
1664.978 63 L
1661.771 63 L
1658.05 63 L
1654.773 63 L
1651.231 63 L
1647.684 63 L
1643.69 63 L
1639.583 64.724 L
1636.145 66.448 L
1632.514 69.896 L
1629.355 69.896 L
1626.169 69.896 L
1622.793 69.896 L
1619.756 69.896 L
1616.739 69.896 L
1612.976 69.896 L
1609.472 69.896 L
1605.909 69.896 L
1602.488 69.896 L
1599.354 69.896 L
1596.219 69.896 L
1592.897 69.896 L
1589.19 69.896 L
1585.345 69.896 L
1582.195 71.62 L
1578.573 71.62 L
1574.787 73.344 L
1571.658 73.344 L
1568.64 73.344 L
1565.234 73.344 L
1561.826 75.068 L
1558.337 75.068 L
1554.539 75.068 L
1551.383 75.068 L
1547.805 76.792 L
1543.579 78.516 L
1540.048 78.516 L
1537.248 78.516 L
1533.487 78.516 L
1529.565 78.516 L
1526.018 78.516 L
1522.704 78.516 L
1519.535 78.516 L
1515.382 78.516 L
1511.762 80.24 L
1507.594 80.24 L
1502.847 80.24 L
1498.935 80.24 L
1494.767 80.24 L
1490.856 80.24 L
1486.143 80.24 L
1482.109 80.24 L
1477.799 80.24 L
1473.115 80.24 L
1468.828 81.964 L
1464.07 83.688 L
1458.376 85.411 L
1454.138 85.411 L
1448.858 87.135 L
1443.352 87.135 L
1437.412 88.859 L
1431.056 90.583 L
1424.609 92.307 L
1418.909 92.307 L
1412.84 94.031 L
1406.761 97.479 L
1399.875 100.927 L
1391.871 104.375 L
1385.651 104.375 L
1377.472 107.823 L
1369.301 107.823 L
1359.012 116.443 L
1351.104 121.615 L
1342.296 121.615 L
1333.814 125.063 L
1324.09 128.51 L
1314.162 138.854 L
1304.113 140.578 L
1293.853 142.302 L
1282.686 145.75 L
1271.116 152.646 L
1257.894 168.161 L
1245.34 173.333 L
1234.495 176.781 L
1222.16 188.849 L
1209.216 197.469 L
1192.76 204.365 L
1174.616 214.708 L
1160.104 225.052 L
1145.852 233.672 L
1126.548 245.74 L
1109.578 259.531 L
1095.911 269.875 L
1080.056 276.771 L
1061.566 281.943 L
1041.641 295.734 L
1019.013 309.526 L
1000.422 328.49 L
987.98 349.177 L
965.069 357.797 L
941.845 375.036 L
923.8 390.552 L
906.95 404.344 L
884.317 419.859 L
862.527 431.927 L
845.169 442.271 L
829.552 452.615 L
812.715 464.682 L
793.494 473.302 L
778.632 473.302 L
761.561 490.542 L
734.377 495.714 L
709.006 511.229 L
694.346 518.125 L
670.298 530.193 L
639.342 540.536 L
627.26 545.708 L
616.646 547.432 L
598.496 556.052 L
556.842 564.672 L
541.98 573.292 L
522.676 583.635 L
508.774 585.359 L
477.949 600.875 L
469.5 606.047 L
465.148 616.391 L
446.805 621.563 L
421.433 625.01 L
404.639 633.63 L
366.527 637.078 L
359.463 645.698 L
352.161 652.594 L
344.602 657.766 L
328.638 664.661 L
302.228 666.385 L
249.823 666.385 L
S
GR
GS
[0.5 0 0 0.5 0 0] CT
0.851 0.325 0.098 RC
1 LJ
4 LW
N
1738 63 M
1737.988 63 L
1737.988 63 L
1737.988 63 L
1737.988 63 L
1737.988 63 L
1737.976 63 L
1737.976 63 L
1737.976 63 L
1737.976 63 L
1737.976 63 L
1737.964 63 L
1737.964 63 L
1737.964 63 L
1737.94 63 L
1737.928 63 L
1737.928 63 L
1737.928 63 L
1737.928 63 L
1737.893 63 L
1737.881 63 L
1737.833 63 L
1737.797 63 L
1737.773 63 L
1737.713 63 L
1737.677 63 L
1737.666 63 L
1737.654 63 L
1737.606 63 L
1737.534 63 L
1737.498 63 L
1737.474 63 L
1737.354 63 L
1737.271 63 L
1737.199 63 L
1737.127 63 L
1737.043 63 L
1736.923 63 L
1736.863 63 L
1736.767 63 L
1736.683 63 L
1736.551 63 L
1736.383 63 L
1736.311 63 L
1736.058 63 L
1735.913 63 L
1735.588 63 L
1735.322 63 L
1734.983 63 L
1734.668 63 L
1734.292 63 L
1733.854 63 L
1733.27 63 L
1732.757 63 L
1732.169 63 L
1731.604 63 L
1730.791 64.724 L
1730.148 64.724 L
1729.131 64.724 L
1728.196 66.448 L
1727.019 66.448 L
1725.759 66.448 L
1724.568 66.448 L
1723.154 66.448 L
1721.665 66.448 L
1720.192 66.448 L
1718.435 66.448 L
1716.505 66.448 L
1714.584 66.448 L
1712.7 66.448 L
1710.46 66.448 L
1708.101 66.448 L
1705.327 66.448 L
1702.615 66.448 L
1699.655 66.448 L
1696.755 66.448 L
1694.284 66.448 L
1690.746 66.448 L
1687.481 66.448 L
1683.583 66.448 L
1680.129 66.448 L
1676.555 66.448 L
1672.711 66.448 L
1669.011 66.448 L
1664.995 66.448 L
1660.937 66.448 L
1656.609 66.448 L
1652.779 68.172 L
1649.041 68.172 L
1645.256 68.172 L
1641.479 68.172 L
1637.766 68.172 L
1633.873 68.172 L
1630.636 68.172 L
1627.01 68.172 L
1623.343 69.896 L
1620.004 69.896 L
1616.466 69.896 L
1613.423 69.896 L
1610.294 69.896 L
1606.942 69.896 L
1603.739 69.896 L
1600.509 69.896 L
1597.391 69.896 L
1594.227 69.896 L
1590.638 69.896 L
1587.78 69.896 L
1584.665 69.896 L
1581.579 69.896 L
1578.773 69.896 L
1575.955 69.896 L
1572.792 69.896 L
1569.764 69.896 L
1566.613 69.896 L
1563.55 69.896 L
1560.089 69.896 L
1557.539 69.896 L
1554.567 69.896 L
1551.042 69.896 L
1547.805 69.896 L
1544.46 71.62 L
1541.42 71.62 L
1538.306 71.62 L
1535.115 71.62 L
1531.659 71.62 L
1527.957 71.62 L
1523.965 71.62 L
1520.389 71.62 L
1516.786 71.62 L
1513.19 71.62 L
1509.188 71.62 L
1505.708 73.344 L
1501.813 73.344 L
1497.992 73.344 L
1492.951 73.344 L
1488.588 73.344 L
1484.252 73.344 L
1480.222 73.344 L
1475.429 73.344 L
1470.652 73.344 L
1465.259 73.344 L
1459.727 75.068 L
1453.96 76.792 L
1448.767 76.792 L
1443.305 80.24 L
1438.085 81.964 L
1431.551 83.688 L
1424.455 83.688 L
1418.647 87.135 L
1411.757 87.135 L
1405.144 90.583 L
1398.437 92.307 L
1390.917 97.479 L
1383.063 102.651 L
1374.525 102.651 L
1365.836 106.099 L
1358.665 114.719 L
1350.456 116.443 L
1341.77 119.891 L
1332.014 119.891 L
1323.437 123.339 L
1314.333 128.51 L
1302.406 133.682 L
1291.02 140.578 L
1279.701 145.75 L
1268.071 152.646 L
1255.441 161.266 L
1242.62 166.438 L
1228.479 171.609 L
1214.704 180.229 L
1197.947 185.401 L
1180.412 188.849 L
1163.395 200.917 L
1145.292 206.089 L
1128.579 221.604 L
1109.799 231.948 L
1094.022 237.12 L
1074.154 249.188 L
1056.825 261.255 L
1041.944 281.943 L
1022.678 294.01 L
1001.519 304.354 L
984.064 316.422 L
963.77 331.938 L
948.474 344.005 L
933.012 352.625 L
918.507 359.521 L
899.472 368.141 L
882.425 383.656 L
872.705 395.724 L
855.463 404.344 L
829.552 426.755 L
811.838 443.995 L
790.602 459.51 L
770.265 464.682 L
759.329 475.026 L
736.882 483.646 L
710.418 497.438 L
685.046 506.057 L
661.646 509.505 L
637.375 518.125 L
623.077 530.193 L
596.115 542.26 L
576.063 545.708 L
556.842 552.604 L
541.98 559.5 L
526.016 562.948 L
482.052 568.12 L
451.539 575.016 L
431.943 583.635 L
398.737 588.807 L
386.425 593.979 L
336.768 600.875 L
320.189 609.495 L
292.653 611.219 L
261.073 623.286 L
249.823 628.282 L
S
GR
GS
[0.5 0 0 0.5 0 0] CT
1 LJ
4 LW
N
1738 63 M
1737.988 63 L
1737.988 63 L
1737.988 63 L
1737.988 63 L
1737.988 63 L
1737.976 63 L
1737.976 63 L
1737.964 63 L
1737.964 63 L
1737.964 63 L
1737.952 63 L
1737.952 63 L
1737.94 63 L
1737.928 63 L
1737.917 63 L
1737.917 63 L
1737.917 63 L
1737.904 63 L
1737.904 63 L
1737.904 63 L
1737.881 63 L
1737.869 63 L
1737.857 63 L
1737.857 63 L
1737.857 63 L
1737.833 63 L
1737.821 63 L
1737.797 63 L
1737.773 63 L
1737.761 63 L
1737.749 63 L
1737.725 63 L
1737.654 63 L
1737.57 63 L
1737.51 63 L
1737.39 63 L
1737.366 63 L
1737.319 63 L
1737.271 63 L
1737.223 63 L
1737.127 63 L
1737.007 63 L
1736.899 63 L
1736.851 63 L
1736.683 63 L
1736.515 63 L
1736.371 63 L
1736.19 63 L
1735.961 63 L
1735.732 63 L
1735.527 63 L
1735.237 63 L
1734.971 63 L
1734.511 63 L
1734.11 63 L
1733.648 63 L
1733.099 64.724 L
1732.647 64.724 L
1732.034 64.724 L
1731.407 64.724 L
1730.865 64.724 L
1730.21 64.724 L
1729.541 64.724 L
1728.67 64.724 L
1727.934 64.724 L
1726.83 64.724 L
1725.759 64.724 L
1724.898 64.724 L
1723.715 64.724 L
1722.334 64.724 L
1720.956 64.724 L
1719.192 64.724 L
1717.571 64.724 L
1715.871 64.724 L
1713.851 64.724 L
1712.014 64.724 L
1709.89 64.724 L
1707.455 64.724 L
1705.313 64.724 L
1703.163 64.724 L
1700.665 64.724 L
1698.095 64.724 L
1695.581 64.724 L
1692.728 64.724 L
1690.389 64.724 L
1687.963 64.724 L
1684.931 64.724 L
1681.901 64.724 L
1679.033 64.724 L
1676.205 64.724 L
1673.147 64.724 L
1669.667 66.448 L
1666.464 66.448 L
1663.229 66.448 L
1660.304 66.448 L
1656.992 66.448 L
1653.522 66.448 L
1650.049 66.448 L
1647.175 66.448 L
1644.041 66.448 L
1640.392 66.448 L
1637.424 66.448 L
1633.602 66.448 L
1630.361 66.448 L
1627.27 66.448 L
1623.911 66.448 L
1620.746 66.448 L
1616.885 66.448 L
1613.381 66.448 L
1609.753 66.448 L
1606.877 66.448 L
1603.805 68.172 L
1600.419 68.172 L
1597.414 68.172 L
1594.297 68.172 L
1591.063 68.172 L
1587.612 68.172 L
1584.251 68.172 L
1580.937 68.172 L
1578.147 68.172 L
1574.863 68.172 L
1571.761 68.172 L
1568.64 68.172 L
1565.5 68.172 L
1561.962 68.172 L
1559.105 68.172 L
1555.682 68.172 L
1552.176 69.896 L
1548.641 69.896 L
1545.892 69.896 L
1542.073 69.896 L
1538.998 69.896 L
1536.001 71.62 L
1532.56 71.62 L
1529.439 71.62 L
1526.082 71.62 L
1522.509 73.344 L
1519.041 73.344 L
1514.845 73.344 L
1511.182 73.344 L
1507.211 73.344 L
1503.202 73.344 L
1499.442 73.344 L
1495.099 73.344 L
1491.119 73.344 L
1486.297 73.344 L
1481.992 75.068 L
1476.316 75.068 L
1471.023 76.792 L
1465.301 78.516 L
1459.205 80.24 L
1453.736 80.24 L
1448.034 81.964 L
1441.232 81.964 L
1434.355 88.859 L
1428.007 88.859 L
1421.985 88.859 L
1413.487 88.859 L
1406.705 90.583 L
1399.071 92.307 L
1390.138 92.307 L
1379.94 94.031 L
1371.602 95.755 L
1362.315 99.203 L
1353.393 99.203 L
1343.566 100.927 L
1332.407 102.651 L
1321.547 107.823 L
1309.85 114.719 L
1296.557 119.891 L
1284.555 128.51 L
1270.385 137.13 L
1257.561 145.75 L
1244.161 147.474 L
1228.606 156.094 L
1212.526 169.885 L
1191.406 176.781 L
1174.942 187.125 L
1158.175 197.469 L
1143.979 206.089 L
1124.91 218.156 L
1107.583 228.5 L
1091.396 238.844 L
1070.745 261.255 L
1050.822 271.599 L
1033.314 283.667 L
1013.568 297.458 L
992.588 307.802 L
973.534 326.766 L
949.404 340.557 L
929.985 354.349 L
911.979 364.693 L
889.896 376.76 L
872.705 388.828 L
856.18 404.344 L
829.552 407.792 L
810.072 419.859 L
792.534 431.927 L
771.329 442.271 L
745.426 454.339 L
725.374 466.406 L
703.261 471.578 L
681.855 487.094 L
668.595 499.161 L
637.375 511.229 L
614.459 516.401 L
596.115 528.469 L
570.744 533.641 L
556.842 542.26 L
535.736 552.604 L
493.912 561.224 L
482.052 569.844 L
469.5 575.016 L
437.012 581.911 L
421.433 592.255 L
404.639 599.151 L
373.366 607.771 L
328.638 611.219 L
311.396 614.667 L
282.632 625.01 L
261.073 628.458 L
249.823 628.458 L
S
GR
GS
[0.5 0 0 0.5 0 0] CT
0.502 GC
1 LJ
4 LW
N
1738 63 M
1403.84 89.27 L
1403.84 89.27 L
1403.84 89.27 L
1403.84 89.27 L
1403.84 89.27 L
1403.84 89.27 L
1403.84 89.27 L
1403.84 89.27 L
1403.84 89.27 L
1403.84 89.27 L
1391.481 94.524 L
1391.481 94.524 L
1391.481 94.524 L
1391.481 94.524 L
1391.481 94.524 L
1391.481 94.524 L
1391.481 94.524 L
1391.481 94.524 L
1391.481 94.524 L
1391.481 94.524 L
1381.055 99.778 L
1381.055 99.778 L
1381.055 99.778 L
1381.055 99.778 L
1381.055 99.778 L
1381.055 99.778 L
1381.055 99.778 L
1381.055 99.778 L
1381.055 99.778 L
1381.055 99.778 L
1367.407 106.783 L
1367.407 106.783 L
1367.407 106.783 L
1367.407 106.783 L
1367.407 106.783 L
1367.407 106.783 L
1367.407 106.783 L
1367.407 106.783 L
1367.407 106.783 L
1367.407 106.783 L
1355.501 112.037 L
1355.501 112.037 L
1355.501 112.037 L
1355.501 112.037 L
1355.501 112.037 L
1355.501 112.037 L
1355.501 112.037 L
1355.501 112.037 L
1355.501 112.037 L
1355.501 112.037 L
1341.832 115.54 L
1341.832 115.54 L
1341.832 115.54 L
1341.832 115.54 L
1341.832 115.54 L
1341.832 115.54 L
1341.832 115.54 L
1341.832 115.54 L
1341.832 115.54 L
1341.832 115.54 L
1327.564 119.042 L
1327.564 119.042 L
1327.564 119.042 L
1327.564 119.042 L
1327.564 119.042 L
1327.564 119.042 L
1327.564 119.042 L
1327.564 119.042 L
1327.564 119.042 L
1314.199 120.794 L
1314.199 120.794 L
1314.199 120.794 L
1314.199 120.794 L
1314.199 120.794 L
1314.199 120.794 L
1314.199 120.794 L
1314.199 120.794 L
1314.199 120.794 L
1314.199 120.794 L
1314.199 120.794 L
1299.857 126.048 L
1299.857 126.048 L
1299.857 126.048 L
1299.857 126.048 L
1299.857 126.048 L
1299.857 126.048 L
1299.857 126.048 L
1299.857 126.048 L
1299.857 126.048 L
1299.857 126.048 L
1285.682 129.55 L
1285.682 129.55 L
1285.682 129.55 L
1285.682 129.55 L
1285.682 129.55 L
1285.682 129.55 L
1285.682 129.55 L
1285.682 129.55 L
1285.682 129.55 L
1285.682 129.55 L
1270.722 134.804 L
1270.722 134.804 L
1270.722 134.804 L
1270.722 134.804 L
1270.722 134.804 L
1270.722 134.804 L
1270.722 134.804 L
1270.722 134.804 L
1270.722 134.804 L
1270.722 134.804 L
1256.125 136.556 L
1256.125 136.556 L
1256.125 136.556 L
1256.125 136.556 L
1256.125 136.556 L
1256.125 136.556 L
1256.125 136.556 L
1256.125 136.556 L
1256.125 136.556 L
1256.125 136.556 L
1244.099 138.307 L
1244.099 138.307 L
1244.099 138.307 L
1244.099 138.307 L
1244.099 138.307 L
1244.099 138.307 L
1244.099 138.307 L
1244.099 138.307 L
1244.099 138.307 L
1244.099 138.307 L
1233.139 140.058 L
1233.139 140.058 L
1233.139 140.058 L
1233.139 140.058 L
1233.139 140.058 L
1233.139 140.058 L
1233.139 140.058 L
1233.139 140.058 L
1233.139 140.058 L
1220.923 145.312 L
1220.923 145.312 L
1220.923 145.312 L
1220.923 145.312 L
1220.923 145.312 L
1220.923 145.312 L
1220.923 145.312 L
1220.923 145.312 L
1220.923 145.312 L
1220.923 145.312 L
1220.923 145.312 L
1205.832 148.815 L
1205.832 148.815 L
1205.832 148.815 L
1205.832 148.815 L
1205.832 148.815 L
1205.832 148.815 L
1205.832 148.815 L
1205.832 148.815 L
1205.832 148.815 L
1205.832 148.815 L
1193.739 154.069 L
1193.739 154.069 L
1193.739 154.069 L
1193.739 154.069 L
1193.739 154.069 L
1193.739 154.069 L
1193.739 154.069 L
1193.739 154.069 L
1193.739 154.069 L
1193.739 154.069 L
1181.729 157.571 L
1181.729 157.571 L
1181.729 157.571 L
1181.729 157.571 L
1181.729 157.571 L
1181.729 157.571 L
1181.729 157.571 L
1181.729 157.571 L
1181.729 157.571 L
1181.729 157.571 L
1169.521 164.577 L
1169.521 164.577 L
1169.521 164.577 L
1169.521 164.577 L
1169.521 164.577 L
1169.521 164.577 L
1169.521 164.577 L
1169.521 164.577 L
1169.521 164.577 L
1156.758 169.831 L
1156.758 169.831 L
1156.758 169.831 L
1156.758 169.831 L
1156.758 169.831 L
1156.758 169.831 L
1156.758 169.831 L
1156.758 169.831 L
1156.758 169.831 L
1156.758 169.831 L
1156.758 169.831 L
1146.617 173.333 L
1146.617 173.333 L
1146.617 173.333 L
1146.617 173.333 L
1146.617 173.333 L
1146.617 173.333 L
1146.617 173.333 L
1146.617 173.333 L
1146.617 173.333 L
1146.617 173.333 L
1136.767 176.836 L
1136.767 176.836 L
1136.767 176.836 L
1136.767 176.836 L
1136.767 176.836 L
1136.767 176.836 L
1136.767 176.836 L
1136.767 176.836 L
1136.767 176.836 L
1136.767 176.836 L
1126.237 176.836 L
1126.237 176.836 L
1126.237 176.836 L
1126.237 176.836 L
1126.237 176.836 L
1126.237 176.836 L
1126.237 176.836 L
1126.237 176.836 L
1126.237 176.836 L
1116.039 182.09 L
1116.039 182.09 L
1116.039 182.09 L
1116.039 182.09 L
1116.039 182.09 L
1116.039 182.09 L
1116.039 182.09 L
1116.039 182.09 L
1116.039 182.09 L
1116.039 182.09 L
1116.039 182.09 L
1104.646 185.593 L
1104.646 185.593 L
1104.646 185.593 L
1104.646 185.593 L
1104.646 185.593 L
1104.646 185.593 L
1104.646 185.593 L
1104.646 185.593 L
1104.646 185.593 L
1104.646 185.593 L
1092.616 190.847 L
1092.616 190.847 L
1092.616 190.847 L
1092.616 190.847 L
1092.616 190.847 L
1092.616 190.847 L
1092.616 190.847 L
1092.616 190.847 L
1092.616 190.847 L
1092.616 190.847 L
1078.585 196.101 L
1078.585 196.101 L
1078.585 196.101 L
1078.585 196.101 L
1078.585 196.101 L
1078.585 196.101 L
1078.585 196.101 L
1078.585 196.101 L
1078.585 196.101 L
1078.585 196.101 L
1069.867 197.852 L
1069.867 197.852 L
1069.867 197.852 L
1069.867 197.852 L
1069.867 197.852 L
1069.867 197.852 L
1069.867 197.852 L
1069.867 197.852 L
1069.867 197.852 L
1062.182 201.354 L
1062.182 201.354 L
1062.182 201.354 L
1062.182 201.354 L
1062.182 201.354 L
1062.182 201.354 L
1062.182 201.354 L
1062.182 201.354 L
1062.182 201.354 L
1062.182 201.354 L
1062.182 201.354 L
1054.214 204.857 L
1054.214 204.857 L
1054.214 204.857 L
1054.214 204.857 L
1054.214 204.857 L
1054.214 204.857 L
1054.214 204.857 L
1054.214 204.857 L
1054.214 204.857 L
1054.214 204.857 L
1045.034 211.862 L
1045.034 211.862 L
1045.034 211.862 L
1045.034 211.862 L
1045.034 211.862 L
1045.034 211.862 L
1045.034 211.862 L
1045.034 211.862 L
1045.034 211.862 L
1045.034 211.862 L
1033.857 220.619 L
1033.857 220.619 L
1033.857 220.619 L
1033.857 220.619 L
1033.857 220.619 L
1033.857 220.619 L
1033.857 220.619 L
1033.857 220.619 L
1033.857 220.619 L
1033.857 220.619 L
1026.07 224.122 L
1026.07 224.122 L
1026.07 224.122 L
1026.07 224.122 L
1026.07 224.122 L
1026.07 224.122 L
1026.07 224.122 L
1026.07 224.122 L
1026.07 224.122 L
1017.304 225.873 L
1017.304 225.873 L
1017.304 225.873 L
1017.304 225.873 L
1017.304 225.873 L
1017.304 225.873 L
1017.304 225.873 L
1017.304 225.873 L
1017.304 225.873 L
1017.304 225.873 L
1017.304 225.873 L
1008.167 231.127 L
1008.167 231.127 L
1008.167 231.127 L
1008.167 231.127 L
1008.167 231.127 L
1008.167 231.127 L
1008.167 231.127 L
1008.167 231.127 L
1008.167 231.127 L
1008.167 231.127 L
998.248 234.63 L
998.248 234.63 L
998.248 234.63 L
998.248 234.63 L
998.248 234.63 L
998.248 234.63 L
998.248 234.63 L
998.248 234.63 L
998.248 234.63 L
998.248 234.63 L
988.639 239.884 L
988.639 239.884 L
988.639 239.884 L
988.639 239.884 L
988.639 239.884 L
988.639 239.884 L
988.639 239.884 L
988.639 239.884 L
988.639 239.884 L
988.639 239.884 L
978.992 243.386 L
978.992 243.386 L
978.992 243.386 L
978.992 243.386 L
978.992 243.386 L
978.992 243.386 L
978.992 243.386 L
978.992 243.386 L
978.992 243.386 L
973.158 259.148 L
973.158 259.148 L
973.158 259.148 L
973.158 259.148 L
973.158 259.148 L
973.158 259.148 L
973.158 259.148 L
973.158 259.148 L
973.158 259.148 L
973.158 259.148 L
973.158 259.148 L
965.856 260.899 L
965.856 260.899 L
965.856 260.899 L
965.856 260.899 L
965.856 260.899 L
965.856 260.899 L
965.856 260.899 L
965.856 260.899 L
965.856 260.899 L
965.856 260.899 L
958.749 266.153 L
958.749 266.153 L
958.749 266.153 L
958.749 266.153 L
958.749 266.153 L
958.749 266.153 L
958.749 266.153 L
958.749 266.153 L
958.749 266.153 L
958.749 266.153 L
948.103 269.656 L
948.103 269.656 L
948.103 269.656 L
948.103 269.656 L
948.103 269.656 L
948.103 269.656 L
948.103 269.656 L
948.103 269.656 L
948.103 269.656 L
948.103 269.656 L
938.398 276.661 L
938.398 276.661 L
938.398 276.661 L
938.398 276.661 L
938.398 276.661 L
938.398 276.661 L
938.398 276.661 L
938.398 276.661 L
938.398 276.661 L
938.398 276.661 L
931.335 276.661 L
931.335 276.661 L
931.335 276.661 L
931.335 276.661 L
931.335 276.661 L
931.335 276.661 L
931.335 276.661 L
931.335 276.661 L
931.335 276.661 L
931.335 276.661 L
919.746 281.915 L
919.746 281.915 L
919.746 281.915 L
919.746 281.915 L
919.746 281.915 L
919.746 281.915 L
919.746 281.915 L
919.746 281.915 L
919.746 281.915 L
919.746 281.915 L
910.907 283.667 L
910.907 283.667 L
910.907 283.667 L
910.907 283.667 L
910.907 283.667 L
910.907 283.667 L
910.907 283.667 L
910.907 283.667 L
910.907 283.667 L
900.51 283.667 L
900.51 283.667 L
900.51 283.667 L
900.51 283.667 L
900.51 283.667 L
900.51 283.667 L
900.51 283.667 L
900.51 283.667 L
900.51 283.667 L
900.51 283.667 L
900.51 283.667 L
887.08 288.921 L
887.08 288.921 L
887.08 288.921 L
887.08 288.921 L
887.08 288.921 L
887.08 288.921 L
887.08 288.921 L
887.08 288.921 L
887.08 288.921 L
887.08 288.921 L
876.759 297.677 L
876.759 297.677 L
876.759 297.677 L
876.759 297.677 L
876.759 297.677 L
876.759 297.677 L
876.759 297.677 L
876.759 297.677 L
876.759 297.677 L
876.759 297.677 L
866.613 304.683 L
866.613 304.683 L
866.613 304.683 L
866.613 304.683 L
866.613 304.683 L
866.613 304.683 L
866.613 304.683 L
866.613 304.683 L
866.613 304.683 L
866.613 304.683 L
851.553 313.439 L
851.553 313.439 L
851.553 313.439 L
851.553 313.439 L
851.553 313.439 L
851.553 313.439 L
851.553 313.439 L
851.553 313.439 L
851.553 313.439 L
841.674 316.942 L
841.674 316.942 L
841.674 316.942 L
841.674 316.942 L
841.674 316.942 L
841.674 316.942 L
841.674 316.942 L
841.674 316.942 L
841.674 316.942 L
841.674 316.942 L
841.674 316.942 L
832.945 318.693 L
832.945 318.693 L
832.945 318.693 L
832.945 318.693 L
832.945 318.693 L
832.945 318.693 L
832.945 318.693 L
832.945 318.693 L
832.945 318.693 L
832.945 318.693 L
823.001 322.196 L
823.001 322.196 L
823.001 322.196 L
823.001 322.196 L
823.001 322.196 L
823.001 322.196 L
823.001 322.196 L
823.001 322.196 L
823.001 322.196 L
823.001 322.196 L
813.464 332.704 L
813.464 332.704 L
813.464 332.704 L
813.464 332.704 L
813.464 332.704 L
813.464 332.704 L
813.464 332.704 L
813.464 332.704 L
813.464 332.704 L
813.464 332.704 L
796.886 341.46 L
796.886 341.46 L
796.886 341.46 L
796.886 341.46 L
796.886 341.46 L
796.886 341.46 L
796.886 341.46 L
796.886 341.46 L
796.886 341.46 L
780.996 350.217 L
780.996 350.217 L
780.996 350.217 L
780.996 350.217 L
780.996 350.217 L
780.996 350.217 L
780.996 350.217 L
780.996 350.217 L
780.996 350.217 L
780.996 350.217 L
780.996 350.217 L
769.349 350.217 L
769.349 350.217 L
769.349 350.217 L
769.349 350.217 L
769.349 350.217 L
769.349 350.217 L
769.349 350.217 L
769.349 350.217 L
769.349 350.217 L
769.349 350.217 L
761.596 357.222 L
761.596 357.222 L
761.596 357.222 L
761.596 357.222 L
761.596 357.222 L
761.596 357.222 L
761.596 357.222 L
761.596 357.222 L
761.596 357.222 L
761.596 357.222 L
739.026 360.725 L
739.026 360.725 L
739.026 360.725 L
739.026 360.725 L
739.026 360.725 L
739.026 360.725 L
739.026 360.725 L
739.026 360.725 L
739.026 360.725 L
739.026 360.725 L
731.377 364.228 L
731.377 364.228 L
731.377 364.228 L
731.377 364.228 L
731.377 364.228 L
731.377 364.228 L
731.377 364.228 L
731.377 364.228 L
731.377 364.228 L
720.737 379.989 L
720.737 379.989 L
720.737 379.989 L
720.737 379.989 L
720.737 379.989 L
720.737 379.989 L
720.737 379.989 L
720.737 379.989 L
720.737 379.989 L
720.737 379.989 L
720.737 379.989 L
705.193 379.989 L
705.193 379.989 L
705.193 379.989 L
705.193 379.989 L
705.193 379.989 L
705.193 379.989 L
705.193 379.989 L
705.193 379.989 L
705.193 379.989 L
705.193 379.989 L
696.216 385.243 L
696.216 385.243 L
696.216 385.243 L
696.216 385.243 L
696.216 385.243 L
696.216 385.243 L
696.216 385.243 L
696.216 385.243 L
696.216 385.243 L
696.216 385.243 L
680.37 394 L
680.37 394 L
680.37 394 L
680.37 394 L
680.37 394 L
680.37 394 L
680.37 394 L
680.37 394 L
680.37 394 L
680.37 394 L
678.719 399.254 L
678.719 399.254 L
678.719 399.254 L
678.719 399.254 L
678.719 399.254 L
678.719 399.254 L
678.719 399.254 L
678.719 399.254 L
678.719 399.254 L
659.675 404.508 L
659.675 404.508 L
659.675 404.508 L
659.675 404.508 L
659.675 404.508 L
659.675 404.508 L
659.675 404.508 L
659.675 404.508 L
659.675 404.508 L
659.675 404.508 L
659.675 404.508 L
648.53 411.513 L
648.53 411.513 L
648.53 411.513 L
648.53 411.513 L
648.53 411.513 L
648.53 411.513 L
648.53 411.513 L
648.53 411.513 L
648.53 411.513 L
648.53 411.513 L
626.469 416.767 L
626.469 416.767 L
626.469 416.767 L
626.469 416.767 L
626.469 416.767 L
626.469 416.767 L
626.469 416.767 L
626.469 416.767 L
626.469 416.767 L
626.469 416.767 L
617.852 423.772 L
617.852 423.772 L
617.852 423.772 L
617.852 423.772 L
617.852 423.772 L
617.852 423.772 L
617.852 423.772 L
617.852 423.772 L
617.852 423.772 L
617.852 423.772 L
606.571 429.026 L
606.571 429.026 L
606.571 429.026 L
606.571 429.026 L
606.571 429.026 L
606.571 429.026 L
606.571 429.026 L
606.571 429.026 L
606.571 429.026 L
582.066 436.032 L
582.066 436.032 L
582.066 436.032 L
582.066 436.032 L
582.066 436.032 L
582.066 436.032 L
582.066 436.032 L
582.066 436.032 L
582.066 436.032 L
582.066 436.032 L
582.066 436.032 L
565.903 439.534 L
565.903 439.534 L
565.903 439.534 L
565.903 439.534 L
565.903 439.534 L
565.903 439.534 L
565.903 439.534 L
565.903 439.534 L
565.903 439.534 L
565.903 439.534 L
551.44 446.54 L
551.44 446.54 L
551.44 446.54 L
551.44 446.54 L
551.44 446.54 L
551.44 446.54 L
551.44 446.54 L
551.44 446.54 L
551.44 446.54 L
551.44 446.54 L
548.428 455.296 L
548.428 455.296 L
548.428 455.296 L
548.428 455.296 L
548.428 455.296 L
548.428 455.296 L
548.428 455.296 L
548.428 455.296 L
548.428 455.296 L
548.428 455.296 L
539.128 458.799 L
539.128 458.799 L
539.128 458.799 L
539.128 458.799 L
539.128 458.799 L
539.128 458.799 L
539.128 458.799 L
539.128 458.799 L
539.128 458.799 L
515.727 462.302 L
515.727 462.302 L
515.727 462.302 L
515.727 462.302 L
515.727 462.302 L
515.727 462.302 L
515.727 462.302 L
515.727 462.302 L
515.727 462.302 L
515.727 462.302 L
515.727 462.302 L
508.546 469.307 L
508.546 469.307 L
508.546 469.307 L
508.546 469.307 L
508.546 469.307 L
508.546 469.307 L
508.546 469.307 L
508.546 469.307 L
508.546 469.307 L
508.546 469.307 L
489.471 472.81 L
489.471 472.81 L
489.471 472.81 L
489.471 472.81 L
489.471 472.81 L
489.471 472.81 L
489.471 472.81 L
489.471 472.81 L
489.471 472.81 L
489.471 472.81 L
477.158 483.317 L
477.158 483.317 L
477.158 483.317 L
477.158 483.317 L
477.158 483.317 L
477.158 483.317 L
477.158 483.317 L
477.158 483.317 L
477.158 483.317 L
477.158 483.317 L
472.893 486.82 L
472.893 486.82 L
472.893 486.82 L
472.893 486.82 L
472.893 486.82 L
472.893 486.82 L
472.893 486.82 L
472.893 486.82 L
472.893 486.82 L
472.893 486.82 L
464.099 490.323 L
464.099 490.323 L
464.099 490.323 L
464.099 490.323 L
464.099 490.323 L
464.099 490.323 L
464.099 490.323 L
464.099 490.323 L
464.099 490.323 L
464.099 490.323 L
435.335 493.825 L
435.335 493.825 L
435.335 493.825 L
435.335 493.825 L
435.335 493.825 L
435.335 493.825 L
435.335 493.825 L
435.335 493.825 L
435.335 493.825 L
435.335 493.825 L
419.372 495.577 L
419.372 495.577 L
419.372 495.577 L
419.372 495.577 L
419.372 495.577 L
419.372 495.577 L
419.372 495.577 L
419.372 495.577 L
419.372 495.577 L
419.372 495.577 L
419.372 502.582 L
419.372 502.582 L
419.372 502.582 L
419.372 502.582 L
419.372 502.582 L
419.372 502.582 L
419.372 502.582 L
419.372 502.582 L
419.372 502.582 L
419.372 502.582 L
383.386 507.836 L
383.386 507.836 L
383.386 507.836 L
383.386 507.836 L
383.386 507.836 L
383.386 507.836 L
383.386 507.836 L
383.386 507.836 L
383.386 507.836 L
383.386 507.836 L
355.553 514.841 L
355.553 514.841 L
355.553 514.841 L
355.553 514.841 L
355.553 514.841 L
355.553 514.841 L
355.553 514.841 L
355.553 514.841 L
355.553 514.841 L
332.03 521.847 L
332.03 521.847 L
332.03 521.847 L
332.03 521.847 L
332.03 521.847 L
332.03 521.847 L
332.03 521.847 L
332.03 521.847 L
332.03 521.847 L
332.03 521.847 L
332.03 521.847 L
332.03 525.349 L
332.03 525.349 L
332.03 525.349 L
332.03 525.349 L
332.03 525.349 L
332.03 525.349 L
332.03 525.349 L
332.03 525.349 L
332.03 525.349 L
332.03 525.349 L
314.788 527.101 L
314.788 527.101 L
314.788 527.101 L
314.788 527.101 L
314.788 527.101 L
314.788 527.101 L
314.788 527.101 L
314.788 527.101 L
314.788 527.101 L
314.788 527.101 L
305.621 534.106 L
305.621 534.106 L
305.621 534.106 L
305.621 534.106 L
305.621 534.106 L
305.621 534.106 L
305.621 534.106 L
305.621 534.106 L
305.621 534.106 L
252.819 537.608 L
252.819 537.608 L
252.819 537.608 L
252.819 537.608 L
252.819 537.608 L
252.819 537.608 L
252.819 537.608 L
252.819 537.608 L
252.819 537.608 L
252.819 537.608 L
252.819 542.862 L
252.819 542.862 L
252.819 542.862 L
252.819 542.862 L
252.819 542.862 L
252.819 542.862 L
252.819 542.862 L
252.819 542.862 L
252.819 542.862 L
252.819 542.862 L
252.819 542.862 L
249.823 543.69 L
S
GR
GS
[0.5 0 0 0.5 0 0] CT
1 GC
N
1526 705 M
1526 533 L
1718 533 L
1718 705 L
cp
f
GR
GS
[0.5 0 0 0.5 798.15845 278.23294] CT
/Helvetica 32.4 F
GS
[1 0 0 1 0 0] CT
0 12.5 moveto 
1 -1 scale
(ICB) t 
GR
GR
GS
[0.5 0 0 0.5 0 0] CT
0 0.447 0.741 RC
1 LJ
4 LW
N
1531.984 556.466 M
1591.829 556.466 L
S
GR
GS
[0.5 0 0 0.5 798.15845 299.07764] CT
/Helvetica 32.4 F
GS
[1 0 0 1 0 0] CT
0 12.5 moveto 
1 -1 scale
(BITS) t 
GR
GR
GS
[0.5 0 0 0.5 0 0] CT
0.851 0.325 0.098 RC
1 LJ
4 LW
N
1531.984 598.155 M
1591.829 598.155 L
S
GR
GS
[0.5 0 0 0.5 798.15845 319.92236] CT
/Helvetica 32.4 F
GS
[1 0 0 1 0 0] CT
0 12.5 moveto 
1 -1 scale
(MOBI) t 
GR
GR
GS
[0.5 0 0 0.5 0 0] CT
1 LJ
4 LW
N
1531.984 639.845 M
1591.829 639.845 L
S
GR
GS
[0.5 0 0 0.5 798.15845 340.76706] CT
/Helvetica 32.4 F
GS
[1 0 0 1 0 0] CT
0 12.5 moveto 
1 -1 scale
(NEURO) t 
GR
GR
GS
[0.5 0 0 0.5 0 0] CT
0.502 GC
1 LJ
4 LW
N
1531.984 681.534 M
1591.829 681.534 L
S
GR
GS
[0.5 0 0 0.5 0 0] CT
0.149 GC
10.0 ML
N
1526 705 M
1526 533 L
1718 533 L
1718 705 L
cp
S
GR
%%Trailer
%%Pages: 1
%%EOF
