%!PS-Adobe-3.0 EPSF-3.0
%%Creator: (MATLAB, The Mathworks, Inc. Version 9.2.0.556344 \(R2017a\). Operating System: Windows 8)
%%Title: D:/Praca/Magisterka/PracaSzablon/images/ch7/NEURO_cmc_MF.eps
%%CreationDate: 2017-11-23T12:31:00
%%Pages: (atend)
%%BoundingBox: 0 0 960 422
%%LanguageLevel: 3
%%EndComments
%%BeginProlog
%%BeginResource: procset (Apache XML Graphics Std ProcSet) 1.2 0
%%Version: 1.2 0
%%Copyright: (Copyright 2001-2003,2010 The Apache Software Foundation. License terms: http://www.apache.org/licenses/LICENSE-2.0)
/bd{bind def}bind def
/ld{load def}bd
/GR/grestore ld
/M/moveto ld
/LJ/setlinejoin ld
/C/curveto ld
/f/fill ld
/LW/setlinewidth ld
/GC/setgray ld
/t/show ld
/N/newpath ld
/CT/concat ld
/cp/closepath ld
/S/stroke ld
/L/lineto ld
/CC/setcmykcolor ld
/A/ashow ld
/GS/gsave ld
/RC/setrgbcolor ld
/RM/rmoveto ld
/ML/setmiterlimit ld
/re {4 2 roll M
1 index 0 rlineto
0 exch rlineto
neg 0 rlineto
cp } bd
/_ctm matrix def
/_tm matrix def
/BT { _ctm currentmatrix pop matrix _tm copy pop 0 0 moveto } bd
/ET { _ctm setmatrix } bd
/iTm { _ctm setmatrix _tm concat } bd
/Tm { _tm astore pop iTm 0 0 moveto } bd
/ux 0.0 def
/uy 0.0 def
/F {
  /Tp exch def
  /Tf exch def
  Tf findfont Tp scalefont setfont
  /cf Tf def  /cs Tp def
} bd
/ULS {currentpoint /uy exch def /ux exch def} bd
/ULE {
  /Tcx currentpoint pop def
  gsave
  newpath
  cf findfont cs scalefont dup
  /FontMatrix get 0 get /Ts exch def /FontInfo get dup
  /UnderlinePosition get Ts mul /To exch def
  /UnderlineThickness get Ts mul /Tt exch def
  ux uy To add moveto  Tcx uy To add lineto
  Tt setlinewidth stroke
  grestore
} bd
/OLE {
  /Tcx currentpoint pop def
  gsave
  newpath
  cf findfont cs scalefont dup
  /FontMatrix get 0 get /Ts exch def /FontInfo get dup
  /UnderlinePosition get Ts mul /To exch def
  /UnderlineThickness get Ts mul /Tt exch def
  ux uy To add cs add moveto Tcx uy To add cs add lineto
  Tt setlinewidth stroke
  grestore
} bd
/SOE {
  /Tcx currentpoint pop def
  gsave
  newpath
  cf findfont cs scalefont dup
  /FontMatrix get 0 get /Ts exch def /FontInfo get dup
  /UnderlinePosition get Ts mul /To exch def
  /UnderlineThickness get Ts mul /Tt exch def
  ux uy To add cs 10 mul 26 idiv add moveto Tcx uy To add cs 10 mul 26 idiv add lineto
  Tt setlinewidth stroke
  grestore
} bd
/QT {
/Y22 exch store
/X22 exch store
/Y21 exch store
/X21 exch store
currentpoint
/Y21 load 2 mul add 3 div exch
/X21 load 2 mul add 3 div exch
/X21 load 2 mul /X22 load add 3 div
/Y21 load 2 mul /Y22 load add 3 div
/X22 load /Y22 load curveto
} bd
/SSPD {
dup length /d exch dict def
{
/v exch def
/k exch def
currentpagedevice k known {
/cpdv currentpagedevice k get def
v cpdv ne {
/upd false def
/nullv v type /nulltype eq def
/nullcpdv cpdv type /nulltype eq def
nullv nullcpdv or
{
/upd true def
} {
/sametype v type cpdv type eq def
sametype {
v type /arraytype eq {
/vlen v length def
/cpdvlen cpdv length def
vlen cpdvlen eq {
0 1 vlen 1 sub {
/i exch def
/obj v i get def
/cpdobj cpdv i get def
obj cpdobj ne {
/upd true def
exit
} if
} for
} {
/upd true def
} ifelse
} {
v type /dicttype eq {
v {
/dv exch def
/dk exch def
/cpddv cpdv dk get def
dv cpddv ne {
/upd true def
exit
} if
} forall
} {
/upd true def
} ifelse
} ifelse
} if
} ifelse
upd true eq {
d k v put
} if
} if
} if
} forall
d length 0 gt {
d setpagedevice
} if
} bd
/RE { % /NewFontName [NewEncodingArray] /FontName RE -
  findfont dup length dict begin
  {
    1 index /FID ne
    {def} {pop pop} ifelse
  } forall
  /Encoding exch def
  /FontName 1 index def
  currentdict definefont pop
  end
} bind def
%%EndResource
%%BeginResource: procset (Apache XML Graphics EPS ProcSet) 1.0 0
%%Version: 1.0 0
%%Copyright: (Copyright 2002-2003 The Apache Software Foundation. License terms: http://www.apache.org/licenses/LICENSE-2.0)
/BeginEPSF { %def
/b4_Inc_state save def         % Save state for cleanup
/dict_count countdictstack def % Count objects on dict stack
/op_count count 1 sub def      % Count objects on operand stack
userdict begin                 % Push userdict on dict stack
/showpage { } def              % Redefine showpage, { } = null proc
0 setgray 0 setlinecap         % Prepare graphics state
1 setlinewidth 0 setlinejoin
10 setmiterlimit [ ] 0 setdash newpath
/languagelevel where           % If level not equal to 1 then
{pop languagelevel             % set strokeadjust and
1 ne                           % overprint to their defaults.
{false setstrokeadjust false setoverprint
} if
} if
} bd
/EndEPSF { %def
count op_count sub {pop} repeat            % Clean up stacks
countdictstack dict_count sub {end} repeat
b4_Inc_state restore
} bd
%%EndResource
%FOPBeginFontDict
%%IncludeResource: font Courier-Bold
%%IncludeResource: font Helvetica
%%IncludeResource: font Courier-BoldOblique
%%IncludeResource: font Courier-Oblique
%%IncludeResource: font Times-Roman
%%IncludeResource: font Helvetica-BoldOblique
%%IncludeResource: font Helvetica-Bold
%%IncludeResource: font Helvetica-Oblique
%%IncludeResource: font Times-BoldItalic
%%IncludeResource: font Courier
%%IncludeResource: font Times-Italic
%%IncludeResource: font Times-Bold
%%IncludeResource: font Symbol
%%IncludeResource: font ZapfDingbats
%FOPEndFontDict
%%BeginResource: encoding WinAnsiEncoding
/WinAnsiEncoding [
/.notdef /.notdef /.notdef /.notdef /.notdef
/.notdef /.notdef /.notdef /.notdef /.notdef
/.notdef /.notdef /.notdef /.notdef /.notdef
/.notdef /.notdef /.notdef /.notdef /.notdef
/.notdef /.notdef /.notdef /.notdef /.notdef
/.notdef /.notdef /.notdef /.notdef /.notdef
/.notdef /.notdef /space /exclam /quotedbl
/numbersign /dollar /percent /ampersand /quotesingle
/parenleft /parenright /asterisk /plus /comma
/hyphen /period /slash /zero /one
/two /three /four /five /six
/seven /eight /nine /colon /semicolon
/less /equal /greater /question /at
/A /B /C /D /E
/F /G /H /I /J
/K /L /M /N /O
/P /Q /R /S /T
/U /V /W /X /Y
/Z /bracketleft /backslash /bracketright /asciicircum
/underscore /quoteleft /a /b /c
/d /e /f /g /h
/i /j /k /l /m
/n /o /p /q /r
/s /t /u /v /w
/x /y /z /braceleft /bar
/braceright /asciitilde /bullet /Euro /bullet
/quotesinglbase /florin /quotedblbase /ellipsis /dagger
/daggerdbl /circumflex /perthousand /Scaron /guilsinglleft
/OE /bullet /Zcaron /bullet /bullet
/quoteleft /quoteright /quotedblleft /quotedblright /bullet
/endash /emdash /asciitilde /trademark /scaron
/guilsinglright /oe /bullet /zcaron /Ydieresis
/space /exclamdown /cent /sterling /currency
/yen /brokenbar /section /dieresis /copyright
/ordfeminine /guillemotleft /logicalnot /sfthyphen /registered
/macron /degree /plusminus /twosuperior /threesuperior
/acute /mu /paragraph /middot /cedilla
/onesuperior /ordmasculine /guillemotright /onequarter /onehalf
/threequarters /questiondown /Agrave /Aacute /Acircumflex
/Atilde /Adieresis /Aring /AE /Ccedilla
/Egrave /Eacute /Ecircumflex /Edieresis /Igrave
/Iacute /Icircumflex /Idieresis /Eth /Ntilde
/Ograve /Oacute /Ocircumflex /Otilde /Odieresis
/multiply /Oslash /Ugrave /Uacute /Ucircumflex
/Udieresis /Yacute /Thorn /germandbls /agrave
/aacute /acircumflex /atilde /adieresis /aring
/ae /ccedilla /egrave /eacute /ecircumflex
/edieresis /igrave /iacute /icircumflex /idieresis
/eth /ntilde /ograve /oacute /ocircumflex
/otilde /odieresis /divide /oslash /ugrave
/uacute /ucircumflex /udieresis /yacute /thorn
/ydieresis
] def
%%EndResource
%FOPBeginFontReencode
/Courier-Bold findfont
dup length dict begin
  {1 index /FID ne {def} {pop pop} ifelse} forall
  /Encoding WinAnsiEncoding def
  currentdict
end
/Courier-Bold exch definefont pop
/Helvetica findfont
dup length dict begin
  {1 index /FID ne {def} {pop pop} ifelse} forall
  /Encoding WinAnsiEncoding def
  currentdict
end
/Helvetica exch definefont pop
/Courier-BoldOblique findfont
dup length dict begin
  {1 index /FID ne {def} {pop pop} ifelse} forall
  /Encoding WinAnsiEncoding def
  currentdict
end
/Courier-BoldOblique exch definefont pop
/Courier-Oblique findfont
dup length dict begin
  {1 index /FID ne {def} {pop pop} ifelse} forall
  /Encoding WinAnsiEncoding def
  currentdict
end
/Courier-Oblique exch definefont pop
/Times-Roman findfont
dup length dict begin
  {1 index /FID ne {def} {pop pop} ifelse} forall
  /Encoding WinAnsiEncoding def
  currentdict
end
/Times-Roman exch definefont pop
/Helvetica-BoldOblique findfont
dup length dict begin
  {1 index /FID ne {def} {pop pop} ifelse} forall
  /Encoding WinAnsiEncoding def
  currentdict
end
/Helvetica-BoldOblique exch definefont pop
/Helvetica-Bold findfont
dup length dict begin
  {1 index /FID ne {def} {pop pop} ifelse} forall
  /Encoding WinAnsiEncoding def
  currentdict
end
/Helvetica-Bold exch definefont pop
/Helvetica-Oblique findfont
dup length dict begin
  {1 index /FID ne {def} {pop pop} ifelse} forall
  /Encoding WinAnsiEncoding def
  currentdict
end
/Helvetica-Oblique exch definefont pop
/Times-BoldItalic findfont
dup length dict begin
  {1 index /FID ne {def} {pop pop} ifelse} forall
  /Encoding WinAnsiEncoding def
  currentdict
end
/Times-BoldItalic exch definefont pop
/Courier findfont
dup length dict begin
  {1 index /FID ne {def} {pop pop} ifelse} forall
  /Encoding WinAnsiEncoding def
  currentdict
end
/Courier exch definefont pop
/Times-Italic findfont
dup length dict begin
  {1 index /FID ne {def} {pop pop} ifelse} forall
  /Encoding WinAnsiEncoding def
  currentdict
end
/Times-Italic exch definefont pop
/Times-Bold findfont
dup length dict begin
  {1 index /FID ne {def} {pop pop} ifelse} forall
  /Encoding WinAnsiEncoding def
  currentdict
end
/Times-Bold exch definefont pop
%FOPEndFontReencode
%%EndProlog
%%Page: 1 1
%%PageBoundingBox: 0 0 960 422
%%BeginPageSetup
[1 0 0 -1 0 422] CT
%%EndPageSetup
GS
[0.5 0 0 0.5 0 0] CT
1 GC
N
0 0 1920 844 re
f
GR
GS
[0.5 0 0 0.5 0 0] CT
1 GC
N
0 0 1920 844 re
f
GR
GS
[0.5 0 0 0.5 0 0] CT
1 GC
N
250 736 M
1738 736 L
1738 63 L
250 63 L
cp
f
GR
GS
[0.5 0 0 0.5 0 0] CT
0.149 GC
2 setlinecap
1 LJ
N
250 736 M
1738 736 L
S
GR
GS
[0.5 0 0 0.5 0 0] CT
0.149 GC
2 setlinecap
1 LJ
N
250 63 M
1738 63 L
S
GR
GS
[0.5 0 0 0.5 0 0] CT
0.149 GC
2 setlinecap
1 LJ
N
250 736 M
250 721.12 L
S
GR
GS
[0.5 0 0 0.5 0 0] CT
0.149 GC
2 setlinecap
1 LJ
N
398.8 736 M
398.8 721.12 L
S
GR
GS
[0.5 0 0 0.5 0 0] CT
0.149 GC
2 setlinecap
1 LJ
N
547.6 736 M
547.6 721.12 L
S
GR
GS
[0.5 0 0 0.5 0 0] CT
0.149 GC
2 setlinecap
1 LJ
N
696.4 736 M
696.4 721.12 L
S
GR
GS
[0.5 0 0 0.5 0 0] CT
0.149 GC
2 setlinecap
1 LJ
N
845.2 736 M
845.2 721.12 L
S
GR
GS
[0.5 0 0 0.5 0 0] CT
0.149 GC
2 setlinecap
1 LJ
N
994 736 M
994 721.12 L
S
GR
GS
[0.5 0 0 0.5 0 0] CT
0.149 GC
2 setlinecap
1 LJ
N
1142.8 736 M
1142.8 721.12 L
S
GR
GS
[0.5 0 0 0.5 0 0] CT
0.149 GC
2 setlinecap
1 LJ
N
1291.6 736 M
1291.6 721.12 L
S
GR
GS
[0.5 0 0 0.5 0 0] CT
0.149 GC
2 setlinecap
1 LJ
N
1440.4 736 M
1440.4 721.12 L
S
GR
GS
[0.5 0 0 0.5 0 0] CT
0.149 GC
2 setlinecap
1 LJ
N
1589.2 736 M
1589.2 721.12 L
S
GR
GS
[0.5 0 0 0.5 0 0] CT
0.149 GC
2 setlinecap
1 LJ
N
1738 736 M
1738 721.12 L
S
GR
GS
[0.5 0 0 0.5 0 0] CT
0.149 GC
2 setlinecap
1 LJ
N
250 63 M
250 77.88 L
S
GR
GS
[0.5 0 0 0.5 0 0] CT
0.149 GC
2 setlinecap
1 LJ
N
398.8 63 M
398.8 77.88 L
S
GR
GS
[0.5 0 0 0.5 0 0] CT
0.149 GC
2 setlinecap
1 LJ
N
547.6 63 M
547.6 77.88 L
S
GR
GS
[0.5 0 0 0.5 0 0] CT
0.149 GC
2 setlinecap
1 LJ
N
696.4 63 M
696.4 77.88 L
S
GR
GS
[0.5 0 0 0.5 0 0] CT
0.149 GC
2 setlinecap
1 LJ
N
845.2 63 M
845.2 77.88 L
S
GR
GS
[0.5 0 0 0.5 0 0] CT
0.149 GC
2 setlinecap
1 LJ
N
994 63 M
994 77.88 L
S
GR
GS
[0.5 0 0 0.5 0 0] CT
0.149 GC
2 setlinecap
1 LJ
N
1142.8 63 M
1142.8 77.88 L
S
GR
GS
[0.5 0 0 0.5 0 0] CT
0.149 GC
2 setlinecap
1 LJ
N
1291.6 63 M
1291.6 77.88 L
S
GR
GS
[0.5 0 0 0.5 0 0] CT
0.149 GC
2 setlinecap
1 LJ
N
1440.4 63 M
1440.4 77.88 L
S
GR
GS
[0.5 0 0 0.5 0 0] CT
0.149 GC
2 setlinecap
1 LJ
N
1589.2 63 M
1589.2 77.88 L
S
GR
GS
[0.5 0 0 0.5 0 0] CT
0.149 GC
2 setlinecap
1 LJ
N
1738 63 M
1738 77.88 L
S
GR
GS
[0.5 0 0 0.5 125 373.60001] CT
0.149 GC
/Helvetica 36 F
GS
[1 0 0 1 0 0] CT
-10.5 37 moveto 
1 -1 scale
(0) t 
GR
GR
GS
[0.5 0 0 0.5 199.39999 373.60001] CT
0.149 GC
/Helvetica 36 F
GS
[1 0 0 1 0 0] CT
-10.5 37 moveto 
1 -1 scale
(5) t 
GR
GR
GS
[0.5 0 0 0.5 273.79999 373.60001] CT
0.149 GC
/Helvetica 36 F
GS
[1 0 0 1 0 0] CT
-20.5 37 moveto 
1 -1 scale
(10) t 
GR
GR
GS
[0.5 0 0 0.5 348.20001 373.60001] CT
0.149 GC
/Helvetica 36 F
GS
[1 0 0 1 0 0] CT
-20.5 37 moveto 
1 -1 scale
(15) t 
GR
GR
GS
[0.5 0 0 0.5 422.60001 373.60001] CT
0.149 GC
/Helvetica 36 F
GS
[1 0 0 1 0 0] CT
-20.5 37 moveto 
1 -1 scale
(20) t 
GR
GR
GS
[0.5 0 0 0.5 497 373.60001] CT
0.149 GC
/Helvetica 36 F
GS
[1 0 0 1 0 0] CT
-20.5 37 moveto 
1 -1 scale
(25) t 
GR
GR
GS
[0.5 0 0 0.5 571.40002 373.60001] CT
0.149 GC
/Helvetica 36 F
GS
[1 0 0 1 0 0] CT
-20.5 37 moveto 
1 -1 scale
(30) t 
GR
GR
GS
[0.5 0 0 0.5 645.79999 373.60001] CT
0.149 GC
/Helvetica 36 F
GS
[1 0 0 1 0 0] CT
-20.5 37 moveto 
1 -1 scale
(35) t 
GR
GR
GS
[0.5 0 0 0.5 720.20001 373.60001] CT
0.149 GC
/Helvetica 36 F
GS
[1 0 0 1 0 0] CT
-20.5 37 moveto 
1 -1 scale
(40) t 
GR
GR
GS
[0.5 0 0 0.5 794.59998 373.60001] CT
0.149 GC
/Helvetica 36 F
GS
[1 0 0 1 0 0] CT
-20.5 37 moveto 
1 -1 scale
(45) t 
GR
GR
GS
[0.5 0 0 0.5 869 373.60001] CT
0.149 GC
/Helvetica 36 F
GS
[1 0 0 1 0 0] CT
-20.5 37 moveto 
1 -1 scale
(50) t 
GR
GR
GS
[0.5 0 0 0.5 497.00037 397.10001] CT
0.149 GC
/Helvetica 39.6 F
GS
[1 0 0 1 0 0] CT
-178 41 moveto 
1 -1 scale
(Pozycja rankingowa) t 
GR
GR
GS
[0.5 0 0 0.5 0 0] CT
0.149 GC
2 setlinecap
1 LJ
N
250 736 M
250 63 L
S
GR
GS
[0.5 0 0 0.5 0 0] CT
0.149 GC
2 setlinecap
1 LJ
N
1738 736 M
1738 63 L
S
GR
GS
[0.5 0 0 0.5 0 0] CT
0.149 GC
2 setlinecap
1 LJ
N
250 736 M
264.88 736 L
S
GR
GS
[0.5 0 0 0.5 0 0] CT
0.149 GC
2 setlinecap
1 LJ
N
250 601.4 M
264.88 601.4 L
S
GR
GS
[0.5 0 0 0.5 0 0] CT
0.149 GC
2 setlinecap
1 LJ
N
250 466.8 M
264.88 466.8 L
S
GR
GS
[0.5 0 0 0.5 0 0] CT
0.149 GC
2 setlinecap
1 LJ
N
250 332.2 M
264.88 332.2 L
S
GR
GS
[0.5 0 0 0.5 0 0] CT
0.149 GC
2 setlinecap
1 LJ
N
250 197.6 M
264.88 197.6 L
S
GR
GS
[0.5 0 0 0.5 0 0] CT
0.149 GC
2 setlinecap
1 LJ
N
250 63 M
264.88 63 L
S
GR
GS
[0.5 0 0 0.5 0 0] CT
0.149 GC
2 setlinecap
1 LJ
N
1738 736 M
1723.12 736 L
S
GR
GS
[0.5 0 0 0.5 0 0] CT
0.149 GC
2 setlinecap
1 LJ
N
1738 601.4 M
1723.12 601.4 L
S
GR
GS
[0.5 0 0 0.5 0 0] CT
0.149 GC
2 setlinecap
1 LJ
N
1738 466.8 M
1723.12 466.8 L
S
GR
GS
[0.5 0 0 0.5 0 0] CT
0.149 GC
2 setlinecap
1 LJ
N
1738 332.2 M
1723.12 332.2 L
S
GR
GS
[0.5 0 0 0.5 0 0] CT
0.149 GC
2 setlinecap
1 LJ
N
1738 197.6 M
1723.12 197.6 L
S
GR
GS
[0.5 0 0 0.5 0 0] CT
0.149 GC
2 setlinecap
1 LJ
N
1738 63 M
1723.12 63 L
S
GR
GS
[0.5 0 0 0.5 119.4 368] CT
0.149 GC
/Helvetica 36 F
GS
[1 0 0 1 0 0] CT
-21 14.5 moveto 
1 -1 scale
(0) t 
GR
GR
GS
[0.5 0 0 0.5 119.4 300.70001] CT
0.149 GC
/Helvetica 36 F
GS
[1 0 0 1 0 0] CT
-51 14.5 moveto 
1 -1 scale
(0.2) t 
GR
GR
GS
[0.5 0 0 0.5 119.4 233.39999] CT
0.149 GC
/Helvetica 36 F
GS
[1 0 0 1 0 0] CT
-51 14.5 moveto 
1 -1 scale
(0.4) t 
GR
GR
GS
[0.5 0 0 0.5 119.4 166.09999] CT
0.149 GC
/Helvetica 36 F
GS
[1 0 0 1 0 0] CT
-51 14.5 moveto 
1 -1 scale
(0.6) t 
GR
GR
GS
[0.5 0 0 0.5 119.4 98.8] CT
0.149 GC
/Helvetica 36 F
GS
[1 0 0 1 0 0] CT
-51 14.5 moveto 
1 -1 scale
(0.8) t 
GR
GR
GS
[0.5 0 0 0.5 119.4 31.5] CT
0.149 GC
/Helvetica 36 F
GS
[1 0 0 1 0 0] CT
-21 14.5 moveto 
1 -1 scale
(1) t 
GR
GR
GS
[0 -0.5 0.5 0 90.9 199.74983] CT
0.149 GC
N
-265.984 -19.047 M
-262.188 -18.078 L
-263.391 -13.422 -266.484 -10.969 QT
-269.578 -8.516 -274.047 -8.516 QT
-278.672 -8.516 -281.578 -10.398 QT
-284.484 -12.281 -285.992 -15.859 QT
-287.5 -19.438 -287.5 -23.531 QT
-287.5 -28 -285.797 -31.336 QT
-284.094 -34.672 -280.938 -36.398 QT
-277.781 -38.125 -273.984 -38.125 QT
-269.688 -38.125 -266.758 -35.938 QT
-263.828 -33.75 -262.688 -29.781 QT
-266.406 -28.906 L
-267.406 -32.031 -269.305 -33.453 QT
-271.203 -34.875 -274.063 -34.875 QT
-277.375 -34.875 -279.586 -33.297 QT
-281.797 -31.719 -282.695 -29.055 QT
-283.594 -26.391 -283.594 -23.547 QT
-283.594 -19.906 -282.531 -17.18 QT
-281.469 -14.453 -279.227 -13.102 QT
-276.984 -11.75 -274.359 -11.75 QT
-271.172 -11.75 -268.969 -13.586 QT
-266.766 -15.422 -265.984 -19.047 QT
cp
-260.125 -9 M
-260.125 -11.859 L
-246.922 -27.016 L
-249.172 -26.891 -250.891 -26.891 QT
-259.344 -26.891 L
-259.344 -29.75 L
-242.391 -29.75 L
-242.391 -27.422 L
-253.625 -14.25 L
-255.782 -11.859 L
-253.422 -12.031 -251.36 -12.031 QT
-241.766 -12.031 L
-241.766 -9 L
-260.125 -9 L
cp
-224.266 -15.688 M
-220.641 -15.234 L
-221.5 -12.047 -223.821 -10.289 QT
-226.141 -8.531 -229.766 -8.531 QT
-234.313 -8.531 -236.977 -11.336 QT
-239.641 -14.141 -239.641 -19.203 QT
-239.641 -24.438 -236.946 -27.328 QT
-234.25 -30.219 -229.954 -30.219 QT
-225.797 -30.219 -223.157 -27.383 QT
-220.516 -24.547 -220.516 -19.406 QT
-220.516 -19.094 -220.547 -18.469 QT
-236.016 -18.469 L
-235.813 -15.063 -234.079 -13.242 QT
-232.344 -11.422 -229.735 -11.422 QT
-227.813 -11.422 -226.446 -12.438 QT
-225.079 -13.453 -224.266 -15.688 QT
cp
-235.813 -21.359 M
-224.235 -21.359 L
-224.469 -23.984 -225.563 -25.297 QT
-227.235 -27.328 -229.922 -27.328 QT
-232.344 -27.328 -233.993 -25.703 QT
-235.641 -24.078 -235.813 -21.359 QT
cp
-225.375 -9 M
-226.485 -8.313 -227.102 -7.305 QT
-227.719 -6.297 -227.719 -5.266 QT
-227.719 -4.453 -227.266 -3.883 QT
-226.813 -3.313 -225.797 -3.313 QT
-225.344 -3.313 -224.875 -3.438 QT
-224.407 -3.563 -224.016 -3.781 QT
-224.016 -1.281 L
-225.454 -0.594 -226.672 -0.594 QT
-227.672 -0.594 -228.414 -0.883 QT
-229.157 -1.172 -229.657 -1.664 QT
-230.157 -2.156 -230.399 -2.805 QT
-230.641 -3.453 -230.641 -4.188 QT
-230.641 -5.438 -229.938 -6.703 QT
-229.235 -7.969 -227.954 -9 QT
-225.375 -9 L
cp
-217.855 -15.188 M
-214.387 -15.734 L
-214.09 -13.656 -212.754 -12.539 QT
-211.418 -11.422 -209.012 -11.422 QT
-206.59 -11.422 -205.418 -12.406 QT
-204.246 -13.391 -204.246 -14.719 QT
-204.246 -15.922 -205.277 -16.594 QT
-205.996 -17.063 -208.871 -17.797 QT
-212.746 -18.766 -214.238 -19.477 QT
-215.73 -20.188 -216.504 -21.453 QT
-217.277 -22.719 -217.277 -24.234 QT
-217.277 -25.625 -216.637 -26.805 QT
-215.996 -27.984 -214.902 -28.766 QT
-214.09 -29.375 -212.676 -29.797 QT
-211.262 -30.219 -209.637 -30.219 QT
-207.199 -30.219 -205.347 -29.516 QT
-203.496 -28.813 -202.621 -27.609 QT
-201.746 -26.406 -201.418 -24.391 QT
-204.855 -23.922 L
-205.09 -25.531 -206.207 -26.43 QT
-207.324 -27.328 -209.387 -27.328 QT
-211.808 -27.328 -212.84 -26.523 QT
-213.871 -25.719 -213.871 -24.641 QT
-213.871 -23.969 -213.449 -23.422 QT
-213.012 -22.844 -212.09 -22.484 QT
-211.574 -22.281 -208.996 -21.578 QT
-205.262 -20.578 -203.785 -19.945 QT
-202.308 -19.313 -201.472 -18.102 QT
-200.637 -16.891 -200.637 -15.094 QT
-200.637 -13.344 -201.66 -11.789 QT
-202.683 -10.234 -204.613 -9.383 QT
-206.543 -8.531 -208.996 -8.531 QT
-213.027 -8.531 -215.152 -10.211 QT
-217.277 -11.891 -217.855 -15.188 QT
cp
-188.98 -12.141 M
-188.465 -9.047 L
-189.949 -8.719 -191.121 -8.719 QT
-193.043 -8.719 -194.097 -9.328 QT
-195.152 -9.938 -195.582 -10.922 QT
-196.012 -11.906 -196.012 -15.078 QT
-196.012 -27.016 L
-198.59 -27.016 L
-198.59 -29.75 L
-196.012 -29.75 L
-196.012 -34.875 L
-192.512 -36.984 L
-192.512 -29.75 L
-188.98 -29.75 L
-188.98 -27.016 L
-192.512 -27.016 L
-192.512 -14.875 L
-192.512 -13.375 -192.324 -12.945 QT
-192.137 -12.516 -191.722 -12.266 QT
-191.308 -12.016 -190.527 -12.016 QT
-189.933 -12.016 -188.98 -12.141 QT
cp
-186.964 -19.375 M
-186.964 -25.141 -183.761 -27.906 QT
-181.089 -30.219 -177.23 -30.219 QT
-172.964 -30.219 -170.245 -27.414 QT
-167.527 -24.609 -167.527 -19.672 QT
-167.527 -15.656 -168.73 -13.367 QT
-169.933 -11.078 -172.23 -9.805 QT
-174.527 -8.531 -177.23 -8.531 QT
-181.589 -8.531 -184.277 -11.328 QT
-186.964 -14.125 -186.964 -19.375 QT
cp
-183.355 -19.375 M
-183.355 -15.391 -181.613 -13.406 QT
-179.87 -11.422 -177.23 -11.422 QT
-174.62 -11.422 -172.878 -13.414 QT
-171.136 -15.406 -171.136 -19.484 QT
-171.136 -23.344 -172.886 -25.32 QT
-174.636 -27.297 -177.23 -27.297 QT
-179.87 -27.297 -181.613 -25.328 QT
-183.355 -23.359 -183.355 -19.375 QT
cp
-165.038 -15.188 M
-161.569 -15.734 L
-161.272 -13.656 -159.936 -12.539 QT
-158.6 -11.422 -156.194 -11.422 QT
-153.772 -11.422 -152.6 -12.406 QT
-151.428 -13.391 -151.428 -14.719 QT
-151.428 -15.922 -152.46 -16.594 QT
-153.178 -17.063 -156.053 -17.797 QT
-159.928 -18.766 -161.421 -19.477 QT
-162.913 -20.188 -163.686 -21.453 QT
-164.46 -22.719 -164.46 -24.234 QT
-164.46 -25.625 -163.819 -26.805 QT
-163.178 -27.984 -162.085 -28.766 QT
-161.272 -29.375 -159.858 -29.797 QT
-158.444 -30.219 -156.819 -30.219 QT
-154.382 -30.219 -152.53 -29.516 QT
-150.678 -28.813 -149.803 -27.609 QT
-148.928 -26.406 -148.6 -24.391 QT
-152.038 -23.922 L
-152.272 -25.531 -153.389 -26.43 QT
-154.507 -27.328 -156.569 -27.328 QT
-158.991 -27.328 -160.022 -26.523 QT
-161.053 -25.719 -161.053 -24.641 QT
-161.053 -23.969 -160.632 -23.422 QT
-160.194 -22.844 -159.272 -22.484 QT
-158.757 -22.281 -156.178 -21.578 QT
-152.444 -20.578 -150.967 -19.945 QT
-149.491 -19.313 -148.655 -18.102 QT
-147.819 -16.891 -147.819 -15.094 QT
-147.819 -13.344 -148.842 -11.789 QT
-149.866 -10.234 -151.796 -9.383 QT
-153.725 -8.531 -156.178 -8.531 QT
-160.21 -8.531 -162.335 -10.211 QT
-164.46 -11.891 -165.038 -15.188 QT
cp
-160.178 -32 M
-157.585 -37.469 L
-152.975 -37.469 L
-157.272 -32 L
-160.178 -32 L
cp
-130.303 -16.594 M
-126.85 -16.156 L
-127.413 -12.578 -129.749 -10.555 QT
-132.085 -8.531 -135.475 -8.531 QT
-139.741 -8.531 -142.327 -11.313 QT
-144.913 -14.094 -144.913 -19.297 QT
-144.913 -22.656 -143.796 -25.172 QT
-142.678 -27.688 -140.405 -28.953 QT
-138.132 -30.219 -135.46 -30.219 QT
-132.085 -30.219 -129.936 -28.508 QT
-127.788 -26.797 -127.178 -23.656 QT
-130.6 -23.125 L
-131.085 -25.219 -132.327 -26.273 QT
-133.569 -27.328 -135.319 -27.328 QT
-137.975 -27.328 -139.639 -25.422 QT
-141.303 -23.516 -141.303 -19.391 QT
-141.303 -15.219 -139.702 -13.32 QT
-138.1 -11.422 -135.522 -11.422 QT
-133.444 -11.422 -132.061 -12.695 QT
-130.678 -13.969 -130.303 -16.594 QT
cp
-138.382 -32 M
-135.788 -37.469 L
-131.178 -37.469 L
-135.475 -32 L
-138.382 -32 L
cp
-113.037 -1.047 M
-113.037 -29.75 L
-109.834 -29.75 L
-109.834 -27.047 L
-108.709 -28.625 -107.28 -29.422 QT
-105.85 -30.219 -103.819 -30.219 QT
-101.162 -30.219 -99.131 -28.852 QT
-97.1 -27.484 -96.069 -24.992 QT
-95.037 -22.5 -95.037 -19.531 QT
-95.037 -16.344 -96.178 -13.797 QT
-97.319 -11.25 -99.498 -9.891 QT
-101.678 -8.531 -104.069 -8.531 QT
-105.834 -8.531 -107.233 -9.273 QT
-108.631 -10.016 -109.522 -11.156 QT
-109.522 -1.047 L
-113.037 -1.047 L
cp
-109.85 -19.25 M
-109.85 -15.25 -108.233 -13.336 QT
-106.616 -11.422 -104.303 -11.422 QT
-101.959 -11.422 -100.295 -13.406 QT
-98.631 -15.391 -98.631 -19.547 QT
-98.631 -23.516 -100.256 -25.484 QT
-101.881 -27.453 -104.147 -27.453 QT
-106.397 -27.453 -108.123 -25.359 QT
-109.85 -23.266 -109.85 -19.25 QT
cp
-92.33 -19.375 M
-92.33 -25.141 -89.127 -27.906 QT
-86.455 -30.219 -82.595 -30.219 QT
-78.33 -30.219 -75.611 -27.414 QT
-72.892 -24.609 -72.892 -19.672 QT
-72.892 -15.656 -74.095 -13.367 QT
-75.298 -11.078 -77.595 -9.805 QT
-79.892 -8.531 -82.595 -8.531 QT
-86.955 -8.531 -89.642 -11.328 QT
-92.33 -14.125 -92.33 -19.375 QT
cp
-88.72 -19.375 M
-88.72 -15.391 -86.978 -13.406 QT
-85.236 -11.422 -82.595 -11.422 QT
-79.986 -11.422 -78.244 -13.414 QT
-76.502 -15.406 -76.502 -19.484 QT
-76.502 -23.344 -78.252 -25.32 QT
-80.002 -27.297 -82.595 -27.297 QT
-85.236 -27.297 -86.978 -25.328 QT
-88.72 -23.359 -88.72 -19.375 QT
cp
-68.997 -1.047 M
-68.997 -29.75 L
-65.794 -29.75 L
-65.794 -27.047 L
-64.669 -28.625 -63.239 -29.422 QT
-61.81 -30.219 -59.778 -30.219 QT
-57.122 -30.219 -55.091 -28.852 QT
-53.06 -27.484 -52.028 -24.992 QT
-50.997 -22.5 -50.997 -19.531 QT
-50.997 -16.344 -52.138 -13.797 QT
-53.278 -11.25 -55.458 -9.891 QT
-57.638 -8.531 -60.028 -8.531 QT
-61.794 -8.531 -63.192 -9.273 QT
-64.591 -10.016 -65.481 -11.156 QT
-65.481 -1.047 L
-68.997 -1.047 L
cp
-65.81 -19.25 M
-65.81 -15.25 -64.192 -13.336 QT
-62.575 -11.422 -60.263 -11.422 QT
-57.919 -11.422 -56.255 -13.406 QT
-54.591 -15.391 -54.591 -19.547 QT
-54.591 -23.516 -56.216 -25.484 QT
-57.841 -27.453 -60.106 -27.453 QT
-62.356 -27.453 -64.083 -25.359 QT
-65.81 -23.266 -65.81 -19.25 QT
cp
-47.024 -9 M
-47.024 -29.75 L
-43.852 -29.75 L
-43.852 -26.594 L
-42.649 -28.813 -41.618 -29.516 QT
-40.586 -30.219 -39.368 -30.219 QT
-37.586 -30.219 -35.743 -29.078 QT
-36.961 -25.813 L
-38.243 -26.578 -39.539 -26.578 QT
-40.696 -26.578 -41.61 -25.883 QT
-42.524 -25.188 -42.914 -23.969 QT
-43.508 -22.094 -43.508 -19.859 QT
-43.508 -9 L
-47.024 -9 L
cp
-20.261 -11.563 M
-22.214 -9.906 -24.018 -9.219 QT
-25.823 -8.531 -27.901 -8.531 QT
-31.308 -8.531 -33.143 -10.203 QT
-34.979 -11.875 -34.979 -14.469 QT
-34.979 -16 -34.292 -17.258 QT
-33.604 -18.516 -32.479 -19.273 QT
-31.354 -20.031 -29.948 -20.422 QT
-28.917 -20.703 -26.823 -20.953 QT
-22.558 -21.469 -20.558 -22.172 QT
-20.526 -22.891 -20.526 -23.078 QT
-20.526 -25.234 -21.526 -26.109 QT
-22.87 -27.297 -25.526 -27.297 QT
-28.011 -27.297 -29.19 -26.43 QT
-30.37 -25.563 -30.948 -23.359 QT
-34.386 -23.828 L
-33.917 -26.031 -32.839 -27.391 QT
-31.761 -28.75 -29.729 -29.484 QT
-27.698 -30.219 -25.026 -30.219 QT
-22.37 -30.219 -20.706 -29.594 QT
-19.042 -28.969 -18.261 -28.016 QT
-17.479 -27.063 -17.167 -25.625 QT
-16.995 -24.719 -16.995 -22.375 QT
-16.995 -17.688 L
-16.995 -12.797 -16.768 -11.492 QT
-16.542 -10.188 -15.886 -9 QT
-19.558 -9 L
-20.104 -10.094 -20.261 -11.563 QT
cp
-20.558 -19.406 M
-22.464 -18.625 -26.292 -18.078 QT
-28.464 -17.766 -29.362 -17.375 QT
-30.261 -16.984 -30.745 -16.234 QT
-31.229 -15.484 -31.229 -14.563 QT
-31.229 -13.156 -30.167 -12.219 QT
-29.104 -11.281 -27.058 -11.281 QT
-25.026 -11.281 -23.44 -12.172 QT
-21.854 -13.063 -21.12 -14.609 QT
-20.558 -15.797 -20.558 -18.125 QT
-20.558 -19.406 L
cp
-7.944 -9 M
-14.287 -29.75 L
-10.662 -29.75 L
-7.365 -17.766 L
-6.131 -13.313 L
-6.053 -13.656 -5.053 -17.594 QT
-1.756 -29.75 L
1.853 -29.75 L
4.963 -17.719 L
5.994 -13.75 L
7.197 -17.75 L
10.744 -29.75 L
14.166 -29.75 L
7.681 -9 L
4.025 -9 L
0.728 -21.422 L
-0.069 -24.953 L
-4.272 -9 L
-7.944 -9 L
cp
16.822 -9 M
16.822 -29.75 L
19.978 -29.75 L
19.978 -26.797 L
22.275 -30.219 26.587 -30.219 QT
28.462 -30.219 30.033 -29.539 QT
31.603 -28.859 32.384 -27.766 QT
33.165 -26.672 33.478 -25.172 QT
33.681 -24.203 33.681 -21.75 QT
33.681 -9 L
30.165 -9 L
30.165 -21.625 L
30.165 -23.766 29.751 -24.828 QT
29.337 -25.891 28.29 -26.531 QT
27.243 -27.172 25.837 -27.172 QT
23.603 -27.172 21.97 -25.742 QT
20.337 -24.313 20.337 -20.328 QT
20.337 -9 L
16.822 -9 L
cp
53.045 -15.688 M
56.67 -15.234 L
55.81 -12.047 53.49 -10.289 QT
51.17 -8.531 47.545 -8.531 QT
42.998 -8.531 40.334 -11.336 QT
37.67 -14.141 37.67 -19.203 QT
37.67 -24.438 40.365 -27.328 QT
43.06 -30.219 47.357 -30.219 QT
51.514 -30.219 54.154 -27.383 QT
56.795 -24.547 56.795 -19.406 QT
56.795 -19.094 56.764 -18.469 QT
41.295 -18.469 L
41.498 -15.063 43.232 -13.242 QT
44.967 -11.422 47.576 -11.422 QT
49.498 -11.422 50.865 -12.438 QT
52.232 -13.453 53.045 -15.688 QT
cp
41.498 -21.359 M
53.076 -21.359 L
52.842 -23.984 51.748 -25.297 QT
50.076 -27.328 47.389 -27.328 QT
44.967 -27.328 43.318 -25.703 QT
41.67 -24.078 41.498 -21.359 QT
cp
60.846 -33.547 M
60.846 -37.641 L
64.362 -37.641 L
64.362 -33.547 L
60.846 -33.547 L
cp
56.378 -0.953 M
57.049 -3.938 L
58.096 -3.672 58.706 -3.672 QT
59.784 -3.672 60.315 -4.383 QT
60.846 -5.094 60.846 -7.938 QT
60.846 -29.75 L
64.362 -29.75 L
64.362 -7.859 L
64.362 -4.031 63.362 -2.531 QT
62.096 -0.578 59.143 -0.578 QT
57.706 -0.578 56.378 -0.953 QT
cp
80.674 -33.594 M
80.674 -37.641 L
84.19 -37.641 L
84.19 -33.594 L
80.674 -33.594 L
cp
80.674 -9 M
80.674 -29.75 L
84.19 -29.75 L
84.19 -9 L
80.674 -9 L
cp
102.908 -9 M
102.908 -11.625 L
100.94 -8.531 97.111 -8.531 QT
94.627 -8.531 92.549 -9.898 QT
90.471 -11.266 89.33 -13.719 QT
88.19 -16.172 88.19 -19.359 QT
88.19 -22.453 89.221 -24.984 QT
90.252 -27.516 92.322 -28.867 QT
94.393 -30.219 96.955 -30.219 QT
98.83 -30.219 100.291 -29.422 QT
101.752 -28.625 102.674 -27.359 QT
102.674 -37.641 L
106.174 -37.641 L
106.174 -9 L
102.908 -9 L
cp
91.799 -19.359 M
91.799 -15.375 93.479 -13.398 QT
95.158 -11.422 97.44 -11.422 QT
99.752 -11.422 101.361 -13.305 QT
102.971 -15.188 102.971 -19.063 QT
102.971 -23.313 101.33 -25.305 QT
99.69 -27.297 97.283 -27.297 QT
94.94 -27.297 93.369 -25.383 QT
91.799 -23.469 91.799 -19.359 QT
cp
125.678 -15.688 M
129.303 -15.234 L
128.444 -12.047 126.124 -10.289 QT
123.803 -8.531 120.178 -8.531 QT
115.632 -8.531 112.968 -11.336 QT
110.303 -14.141 110.303 -19.203 QT
110.303 -24.438 112.999 -27.328 QT
115.694 -30.219 119.991 -30.219 QT
124.147 -30.219 126.788 -27.383 QT
129.428 -24.547 129.428 -19.406 QT
129.428 -19.094 129.397 -18.469 QT
113.928 -18.469 L
114.132 -15.063 115.866 -13.242 QT
117.6 -11.422 120.21 -11.422 QT
122.132 -11.422 123.499 -12.438 QT
124.866 -13.453 125.678 -15.688 QT
cp
114.132 -21.359 M
125.71 -21.359 L
125.475 -23.984 124.382 -25.297 QT
122.71 -27.328 120.022 -27.328 QT
117.6 -27.328 115.952 -25.703 QT
114.303 -24.078 114.132 -21.359 QT
cp
133.495 -9 M
133.495 -29.75 L
136.652 -29.75 L
136.652 -26.797 L
138.949 -30.219 143.261 -30.219 QT
145.136 -30.219 146.706 -29.539 QT
148.277 -28.859 149.058 -27.766 QT
149.839 -26.672 150.152 -25.172 QT
150.355 -24.203 150.355 -21.75 QT
150.355 -9 L
146.839 -9 L
146.839 -21.625 L
146.839 -23.766 146.425 -24.828 QT
146.011 -25.891 144.964 -26.531 QT
143.917 -27.172 142.511 -27.172 QT
140.277 -27.172 138.644 -25.742 QT
137.011 -24.313 137.011 -20.328 QT
137.011 -9 L
133.495 -9 L
cp
163.188 -12.141 M
163.703 -9.047 L
162.219 -8.719 161.047 -8.719 QT
159.125 -8.719 158.07 -9.328 QT
157.016 -9.938 156.586 -10.922 QT
156.156 -11.906 156.156 -15.078 QT
156.156 -27.016 L
153.578 -27.016 L
153.578 -29.75 L
156.156 -29.75 L
156.156 -34.875 L
159.656 -36.984 L
159.656 -29.75 L
163.188 -29.75 L
163.188 -27.016 L
159.656 -27.016 L
159.656 -14.875 L
159.656 -13.375 159.844 -12.945 QT
160.031 -12.516 160.445 -12.266 QT
160.859 -12.016 161.641 -12.016 QT
162.234 -12.016 163.188 -12.141 QT
cp
166.36 -1.016 M
165.969 -4.313 L
167.125 -4 167.985 -4 QT
169.157 -4 169.86 -4.391 QT
170.563 -4.781 171 -5.484 QT
171.344 -6.016 172.079 -8.094 QT
172.172 -8.391 172.391 -8.953 QT
164.516 -29.75 L
168.313 -29.75 L
172.625 -17.734 L
173.469 -15.453 174.125 -12.922 QT
174.735 -15.344 175.579 -17.656 QT
180.016 -29.75 L
183.532 -29.75 L
175.641 -8.641 L
174.36 -5.234 173.657 -3.938 QT
172.719 -2.203 171.508 -1.391 QT
170.297 -0.578 168.625 -0.578 QT
167.61 -0.578 166.36 -1.016 QT
cp
187.157 -9 M
187.157 -27.016 L
184.047 -27.016 L
184.047 -29.75 L
187.157 -29.75 L
187.157 -31.953 L
187.157 -34.047 187.516 -35.063 QT
188.032 -36.422 189.313 -37.273 QT
190.594 -38.125 192.891 -38.125 QT
194.375 -38.125 196.172 -37.766 QT
195.641 -34.703 L
194.547 -34.906 193.579 -34.906 QT
191.969 -34.906 191.305 -34.219 QT
190.641 -33.531 190.641 -31.656 QT
190.641 -29.75 L
194.688 -29.75 L
194.688 -27.016 L
190.641 -27.016 L
190.641 -9 L
187.157 -9 L
cp
197.329 -33.594 M
197.329 -37.641 L
200.845 -37.641 L
200.845 -33.594 L
197.329 -33.594 L
cp
197.329 -9 M
197.329 -29.75 L
200.845 -29.75 L
200.845 -9 L
197.329 -9 L
cp
206.125 -9 M
206.125 -37.641 L
209.641 -37.641 L
209.641 -21.313 L
217.969 -29.75 L
222.516 -29.75 L
214.579 -22.047 L
223.313 -9 L
218.985 -9 L
212.125 -19.609 L
209.641 -17.219 L
209.641 -9 L
206.125 -9 L
cp
239.438 -11.563 M
237.485 -9.906 235.68 -9.219 QT
233.875 -8.531 231.797 -8.531 QT
228.391 -8.531 226.555 -10.203 QT
224.719 -11.875 224.719 -14.469 QT
224.719 -16 225.407 -17.258 QT
226.094 -18.516 227.219 -19.273 QT
228.344 -20.031 229.75 -20.422 QT
230.782 -20.703 232.875 -20.953 QT
237.141 -21.469 239.141 -22.172 QT
239.172 -22.891 239.172 -23.078 QT
239.172 -25.234 238.172 -26.109 QT
236.829 -27.297 234.172 -27.297 QT
231.688 -27.297 230.508 -26.43 QT
229.329 -25.563 228.75 -23.359 QT
225.313 -23.828 L
225.782 -26.031 226.86 -27.391 QT
227.938 -28.75 229.969 -29.484 QT
232 -30.219 234.672 -30.219 QT
237.329 -30.219 238.993 -29.594 QT
240.657 -28.969 241.438 -28.016 QT
242.219 -27.063 242.532 -25.625 QT
242.704 -24.719 242.704 -22.375 QT
242.704 -17.688 L
242.704 -12.797 242.93 -11.492 QT
243.157 -10.188 243.813 -9 QT
240.141 -9 L
239.594 -10.094 239.438 -11.563 QT
cp
239.141 -19.406 M
237.235 -18.625 233.407 -18.078 QT
231.235 -17.766 230.336 -17.375 QT
229.438 -16.984 228.954 -16.234 QT
228.469 -15.484 228.469 -14.563 QT
228.469 -13.156 229.532 -12.219 QT
230.594 -11.281 232.641 -11.281 QT
234.672 -11.281 236.258 -12.172 QT
237.844 -13.063 238.579 -14.609 QT
239.141 -15.797 239.141 -18.125 QT
239.141 -19.406 L
cp
261.458 -16.594 M
264.911 -16.156 L
264.349 -12.578 262.013 -10.555 QT
259.677 -8.531 256.286 -8.531 QT
252.021 -8.531 249.435 -11.313 QT
246.849 -14.094 246.849 -19.297 QT
246.849 -22.656 247.966 -25.172 QT
249.083 -27.688 251.357 -28.953 QT
253.63 -30.219 256.302 -30.219 QT
259.677 -30.219 261.825 -28.508 QT
263.974 -26.797 264.583 -23.656 QT
261.161 -23.125 L
260.677 -25.219 259.435 -26.273 QT
258.192 -27.328 256.442 -27.328 QT
253.786 -27.328 252.122 -25.422 QT
250.458 -23.516 250.458 -19.391 QT
250.458 -15.219 252.06 -13.32 QT
253.661 -11.422 256.239 -11.422 QT
258.317 -11.422 259.7 -12.695 QT
261.083 -13.969 261.458 -16.594 QT
cp
267.708 -33.547 M
267.708 -37.641 L
271.224 -37.641 L
271.224 -33.547 L
267.708 -33.547 L
cp
263.239 -0.953 M
263.911 -3.938 L
264.958 -3.672 265.567 -3.672 QT
266.646 -3.672 267.177 -4.383 QT
267.708 -5.094 267.708 -7.938 QT
267.708 -29.75 L
271.224 -29.75 L
271.224 -7.859 L
271.224 -4.031 270.224 -2.531 QT
268.958 -0.578 266.005 -0.578 QT
264.567 -0.578 263.239 -0.953 QT
cp
276.536 -33.594 M
276.536 -37.641 L
280.051 -37.641 L
280.051 -33.594 L
276.536 -33.594 L
cp
276.536 -9 M
276.536 -29.75 L
280.051 -29.75 L
280.051 -9 L
276.536 -9 L
cp
f
GR
GS
[0.5 0 0 0.5 0 0] CT
0 0.447 0.741 RC
1 LJ
4 LW
N
250 736 M
279.76 418.779 L
309.52 290.839 L
339.28 236.508 L
369.04 199.703 L
398.8 171.661 L
428.56 148.878 L
458.32 136.609 L
488.08 115.578 L
517.84 105.063 L
547.6 98.052 L
577.36 91.042 L
607.12 87.536 L
636.88 80.526 L
666.64 78.773 L
696.4 78.773 L
726.16 78.773 L
755.92 77.021 L
785.68 77.021 L
815.44 77.021 L
845.2 77.021 L
874.96 75.268 L
904.72 75.268 L
934.48 73.516 L
964.24 73.516 L
994 73.516 L
1023.76 73.516 L
1053.52 73.516 L
1083.28 73.516 L
1113.04 73.516 L
1142.8 73.516 L
1172.56 71.763 L
1202.32 71.763 L
1232.08 71.763 L
1261.84 71.763 L
1291.6 71.763 L
1321.36 71.763 L
1351.12 70.01 L
1380.88 63 L
1410.64 63 L
1440.4 63 L
1470.16 63 L
1499.92 63 L
1529.68 63 L
1559.44 63 L
1589.2 63 L
1618.96 63 L
1648.72 63 L
1678.48 63 L
S
GR
GS
[0.5 0 0 0.5 0 0] CT
0.851 0.325 0.098 RC
1 LJ
4 LW
N
250 736 M
279.76 373.211 L
309.52 282.076 L
339.28 213.724 L
369.04 187.435 L
398.8 166.404 L
428.56 143.62 L
458.32 115.578 L
488.08 101.557 L
517.84 91.042 L
547.6 89.289 L
577.36 87.536 L
607.12 82.279 L
636.88 82.279 L
666.64 82.279 L
696.4 80.526 L
726.16 80.526 L
755.92 78.773 L
785.68 78.773 L
815.44 77.021 L
845.2 75.268 L
874.96 75.268 L
904.72 75.268 L
934.48 75.268 L
964.24 73.516 L
994 71.763 L
1023.76 71.763 L
1053.52 71.763 L
1083.28 71.763 L
1113.04 70.01 L
1142.8 70.01 L
1172.56 70.01 L
1202.32 70.01 L
1232.08 70.01 L
1261.84 68.258 L
1291.6 68.258 L
1321.36 68.258 L
1351.12 68.258 L
1380.88 68.258 L
1410.64 66.505 L
1440.4 66.505 L
1470.16 66.505 L
1499.92 66.505 L
1529.68 66.505 L
1559.44 64.753 L
1589.2 64.753 L
1618.96 64.753 L
1648.72 64.753 L
1678.48 63 L
S
GR
GS
[0.5 0 0 0.5 0 0] CT
1 LJ
4 LW
N
250 736 M
279.76 394.242 L
309.52 273.313 L
339.28 211.971 L
369.04 171.661 L
398.8 145.372 L
428.56 133.104 L
458.32 117.331 L
488.08 106.815 L
517.84 101.557 L
547.6 94.547 L
577.36 89.289 L
607.12 85.784 L
636.88 85.784 L
666.64 85.784 L
696.4 84.031 L
726.16 78.773 L
755.92 77.021 L
785.68 77.021 L
815.44 75.268 L
845.2 73.516 L
874.96 71.763 L
904.72 71.763 L
934.48 70.01 L
964.24 70.01 L
994 70.01 L
1023.76 68.258 L
1053.52 68.258 L
1083.28 68.258 L
1113.04 68.258 L
1142.8 68.258 L
1172.56 68.258 L
1202.32 68.258 L
1232.08 68.258 L
1261.84 68.258 L
1291.6 66.505 L
1321.36 66.505 L
1351.12 66.505 L
1380.88 66.505 L
1410.64 64.753 L
1440.4 64.753 L
1470.16 64.753 L
1499.92 64.753 L
1529.68 64.753 L
1559.44 64.753 L
1589.2 64.753 L
1618.96 64.753 L
1648.72 63 L
1678.48 63 L
S
GR
GS
[0.5 0 0 0.5 0 0] CT
0.502 GC
1 LJ
4 LW
N
250 736 M
279.76 205.434 L
309.52 160.923 L
339.28 139.558 L
369.04 127.095 L
398.8 111.071 L
428.56 103.95 L
458.32 96.828 L
488.08 93.267 L
517.84 91.487 L
547.6 89.706 L
577.36 86.145 L
607.12 86.145 L
636.88 86.145 L
666.64 84.365 L
696.4 84.365 L
726.16 82.585 L
755.92 79.024 L
785.68 79.024 L
815.44 79.024 L
845.2 79.024 L
874.96 79.024 L
904.72 79.024 L
934.48 79.024 L
964.24 79.024 L
994 79.024 L
1023.76 79.024 L
1053.52 75.463 L
1083.28 75.463 L
1113.04 75.463 L
1142.8 75.463 L
1172.56 75.463 L
1202.32 75.463 L
1232.08 75.463 L
1261.84 73.683 L
1291.6 73.683 L
1321.36 71.902 L
1351.12 70.122 L
1380.88 66.561 L
1410.64 66.561 L
1440.4 66.561 L
1470.16 66.561 L
1499.92 66.561 L
1529.68 66.561 L
1559.44 64.78 L
1589.2 64.78 L
1618.96 64.78 L
1648.72 63 L
1678.48 63 L
S
GR
GS
[0.5 0 0 0.5 0 0] CT
1 GC
N
1526 716 M
1526 544 L
1718 544 L
1718 716 L
cp
f
GR
GS
[0.5 0 0 0.5 798.15845 283.73294] CT
/Helvetica 32.4 F
GS
[1 0 0 1 0 0] CT
0 12.5 moveto 
1 -1 scale
(ICB) t 
GR
GR
GS
[0.5 0 0 0.5 0 0] CT
0 0.447 0.741 RC
1 LJ
4 LW
N
1531.984 567.466 M
1591.829 567.466 L
S
GR
GS
[0.5 0 0 0.5 798.15845 304.57764] CT
/Helvetica 32.4 F
GS
[1 0 0 1 0 0] CT
0 12.5 moveto 
1 -1 scale
(BITS) t 
GR
GR
GS
[0.5 0 0 0.5 0 0] CT
0.851 0.325 0.098 RC
1 LJ
4 LW
N
1531.984 609.155 M
1591.829 609.155 L
S
GR
GS
[0.5 0 0 0.5 798.15845 325.42236] CT
/Helvetica 32.4 F
GS
[1 0 0 1 0 0] CT
0 12.5 moveto 
1 -1 scale
(MOBI) t 
GR
GR
GS
[0.5 0 0 0.5 0 0] CT
1 LJ
4 LW
N
1531.984 650.845 M
1591.829 650.845 L
S
GR
GS
[0.5 0 0 0.5 798.15845 346.26706] CT
/Helvetica 32.4 F
GS
[1 0 0 1 0 0] CT
0 12.5 moveto 
1 -1 scale
(NEURO) t 
GR
GR
GS
[0.5 0 0 0.5 0 0] CT
0.502 GC
1 LJ
4 LW
N
1531.984 692.534 M
1591.829 692.534 L
S
GR
GS
[0.5 0 0 0.5 0 0] CT
0.149 GC
10.0 ML
N
1526 716 M
1526 544 L
1718 544 L
1718 716 L
cp
S
GR
%%Trailer
%%Pages: 1
%%EOF
